year,month,day,hour,minute,second,time,start_time,midpoint_time,time_decimal,value,value_std_dev,value_unc,nvalue,latitude,longitude,altitude,pressure,u,v,temperature,profile_id,flight_id,unique_sample_location_num,obs_flag,obs_num,obspack_num,obspack_id,site_code,site_name,site_country,dataset_project,lab_1_abbr,altitude_comment,site_utc2lst,agl,asl,what,air_flag,bl_bt_flag,flight_flag,gps_altitude,h2o,maneuver_flag,maneuver_flagqc,new_variable,pressure_altitude,source_id,time_interval,timeUTC,time_inter,timeUTC_end,time_warning,year_end,month_end,day_end,hour_end,minute_end,second_end,long,lat,mole_fraction,decimal_year,local_time,lh,year_localtime,month_localtime,day_localtime,hour_localtime,site_elevation
2020,1,8,23,0,5,1578524405,1578524400,1578524405,2020.02174423826,1.9092e-06,,,,34.471,-116.427,7932.6,484.2,21.112854,-3.7721784,258.08,,,47632614,1,723514,8239092,obspack_ch4_1_GLOBALVIEWplus_v4.0_2021-10-14~ch4_iagos-caribic_aircraft-insitu_457_allvalid~8239092,IAGOS,In-service Aircraft for a Global Observing System,France,aircraft-insitu,KIT/IMK-ASF,Altitude (in meters above sea level). See provider_comment if available.,,,-1e+34,asl,,,,,,,,,,SU_20200108_584_MUC_LAX_10s_V05.txt~4301,,2020-01-08T23:00:05Z,0,2020-01-08T23:00:05Z,"warning, start/end time equals",2020,1,08,23,0,5,-116.427,34.471,1909.2,2020.02174423826,2020-01-08T22:14:05Z,15,2020,1,8,15,
2020,1,8,23,0,25,1578524425,1578524420,1578524425,2020.02174487072,1.9081e-06,,,,34.456,-116.463,7830.46,489.6,22.384691,-2.5781202,258.74,,,47632607,1,723516,8239094,obspack_ch4_1_GLOBALVIEWplus_v4.0_2021-10-14~ch4_iagos-caribic_aircraft-insitu_457_allvalid~8239094,IAGOS,In-service Aircraft for a Global Observing System,France,aircraft-insitu,KIT/IMK-ASF,Altitude (in meters above sea level). See provider_comment if available.,,,-1e+34,asl,,,,,,,,,,SU_20200108_584_MUC_LAX_10s_V05.txt~4303,,2020-01-08T23:00:25Z,0,2020-01-08T23:00:25Z,"warning, start/end time equals",2020,1,08,23,0,25,-116.463,34.456,1908.1,2020.02174487072,2020-01-08T22:14:25Z,15,2020,1,8,15,
2020,1,8,23,0,45,1578524445,1578524440,1578524445,2020.02174550319,1.908e-06,,,,34.441,-116.499,7665.17,501.9,24.86294,-1.5206825,260.52,,,47632599,1,723518,8239096,obspack_ch4_1_GLOBALVIEWplus_v4.0_2021-10-14~ch4_iagos-caribic_aircraft-insitu_457_allvalid~8239096,IAGOS,In-service Aircraft for a Global Observing System,France,aircraft-insitu,KIT/IMK-ASF,Altitude (in meters above sea level). See provider_comment if available.,,,-1e+34,asl,,,,,,,,,,SU_20200108_584_MUC_LAX_10s_V05.txt~4305,,2020-01-08T23:00:45Z,0,2020-01-08T23:00:45Z,"warning, start/end time equals",2020,1,08,23,0,45,-116.499,34.441,1908,2020.02174550319,2020-01-08T22:14:45Z,15,2020,1,8,15,
2020,1,8,23,1,5,1578524465,1578524460,1578524465,2020.02174613565,1.9078e-06,,,,34.426,-116.534,7464.09,514.6,26.137774,-3.7571979,262.02,,,47632594,1,723520,8239098,obspack_ch4_1_GLOBALVIEWplus_v4.0_2021-10-14~ch4_iagos-caribic_aircraft-insitu_457_allvalid~8239098,IAGOS,In-service Aircraft for a Global Observing System,France,aircraft-insitu,KIT/IMK-ASF,Altitude (in meters above sea level). See provider_comment if available.,,,-1e+34,asl,,,,,,,,,,SU_20200108_584_MUC_LAX_10s_V05.txt~4307,,2020-01-08T23:01:05Z,0,2020-01-08T23:01:05Z,"warning, start/end time equals",2020,1,08,23,1,5,-116.534,34.426,1907.8,2020.02174613565,2020-01-08T22:14:05Z,15,2020,1,8,15,
2020,1,8,23,1,25,1578524485,1578524480,1578524485,2020.02174676811,1.9091e-06,,,,34.412,-116.57,7262.87,527.2,26.380978,-4.6469307,263.8,,,47632588,1,723522,8239100,obspack_ch4_1_GLOBALVIEWplus_v4.0_2021-10-14~ch4_iagos-caribic_aircraft-insitu_457_allvalid~8239100,IAGOS,In-service Aircraft for a Global Observing System,France,aircraft-insitu,KIT/IMK-ASF,Altitude (in meters above sea level). See provider_comment if available.,,,-1e+34,asl,,,,,,,,,,SU_20200108_584_MUC_LAX_10s_V05.txt~4309,,2020-01-08T23:01:25Z,0,2020-01-08T23:01:25Z,"warning, start/end time equals",2020,1,08,23,1,25,-116.57,34.412,1909.1,2020.02174676811,2020-01-08T22:15:25Z,15,2020,1,8,15,
2020,1,8,23,1,45,1578524505,1578524500,1578524505,2020.02174740058,1.9112e-06,,,,34.398,-116.605,7054.38,534,25.5907,-5.8093677,264.65,,,47632582,1,723524,8239102,obspack_ch4_1_GLOBALVIEWplus_v4.0_2021-10-14~ch4_iagos-caribic_aircraft-insitu_457_allvalid~8239102,IAGOS,In-service Aircraft for a Global Observing System,France,aircraft-insitu,KIT/IMK-ASF,Altitude (in meters above sea level). See provider_comment if available.,,,-1e+34,asl,,,,,,,,,,SU_20200108_584_MUC_LAX_10s_V05.txt~4311,,2020-01-08T23:01:45Z,0,2020-01-08T23:01:45Z,"warning, start/end time equals",2020,1,08,23,1,45,-116.605,34.398,1911.2,2020.02174740058,2020-01-08T22:15:45Z,15,2020,1,8,15,
2020,1,8,23,2,5,1578524525,1578524520,1578524525,2020.02174803304,1.9126e-06,,,,34.384,-116.639,6843.03,534.1,24.461298,-7.060391,264.32,,,47632576,1,723526,8239104,obspack_ch4_1_GLOBALVIEWplus_v4.0_2021-10-14~ch4_iagos-caribic_aircraft-insitu_457_allvalid~8239104,IAGOS,In-service Aircraft for a Global Observing System,France,aircraft-insitu,KIT/IMK-ASF,Altitude (in meters above sea level). See provider_comment if available.,,,-1e+34,asl,,,,,,,,,,SU_20200108_584_MUC_LAX_10s_V05.txt~4313,,2020-01-08T23:02:05Z,0,2020-01-08T23:02:05Z,"warning, start/end time equals",2020,1,08,23,2,5,-116.639,34.384,1912.6,2020.02174803304,2020-01-08T22:15:05Z,15,2020,1,8,15,
2020,1,8,23,2,25,1578524545,1578524540,1578524545,2020.0217486655,1.9142e-06,,,,34.371,-116.671,6640.95,542.5,24.18844,-9.1497,265.13,,,47632569,1,723528,8239106,obspack_ch4_1_GLOBALVIEWplus_v4.0_2021-10-14~ch4_iagos-caribic_aircraft-insitu_457_allvalid~8239106,IAGOS,In-service Aircraft for a Global Observing System,France,aircraft-insitu,KIT/IMK-ASF,Altitude (in meters above sea level). See provider_comment if available.,,,-1e+34,asl,,,,,,,,,,SU_20200108_584_MUC_LAX_10s_V05.txt~4315,,2020-01-08T23:02:25Z,0,2020-01-08T23:02:25Z,"warning, start/end time equals",2020,1,08,23,2,25,-116.671,34.371,1914.2,2020.0217486655,2020-01-08T22:15:25Z,15,2020,1,8,15,
2020,1,8,23,2,45,1578524565,1578524560,1578524565,2020.02174929797,1.9152e-06,,,,34.358,-116.703,6437.5,553.2,25.109085,-11.043031,266.21,,,47632565,1,723530,8239108,obspack_ch4_1_GLOBALVIEWplus_v4.0_2021-10-14~ch4_iagos-caribic_aircraft-insitu_457_allvalid~8239108,IAGOS,In-service Aircraft for a Global Observing System,France,aircraft-insitu,KIT/IMK-ASF,Altitude (in meters above sea level). See provider_comment if available.,,,-1e+34,asl,,,,,,,,,,SU_20200108_584_MUC_LAX_10s_V05.txt~4317,,2020-01-08T23:02:45Z,0,2020-01-08T23:02:45Z,"warning, start/end time equals",2020,1,08,23,2,45,-116.703,34.358,1915.2,2020.02174929797,2020-01-08T22:15:45Z,15,2020,1,8,15,
2020,1,8,23,3,5,1578524585,1578524580,1578524585,2020.02174993043,1.9153e-06,,,,34.346,-116.735,6236.63,562.7,23.667656,-12.882598,267.01,,,47632558,1,723532,8239110,obspack_ch4_1_GLOBALVIEWplus_v4.0_2021-10-14~ch4_iagos-caribic_aircraft-insitu_457_allvalid~8239110,IAGOS,In-service Aircraft for a Global Observing System,France,aircraft-insitu,KIT/IMK-ASF,Altitude (in meters above sea level). See provider_comment if available.,,,-1e+34,asl,,,,,,,,,,SU_20200108_584_MUC_LAX_10s_V05.txt~4319,,2020-01-08T23:03:05Z,0,2020-01-08T23:03:05Z,"warning, start/end time equals",2020,1,08,23,3,5,-116.735,34.346,1915.3,2020.02174993043,2020-01-08T22:16:05Z,15,2020,1,8,15,
2020,1,8,23,3,25,1578524605,1578524600,1578524605,2020.02175056289,1.9147e-06,,,,34.333,-116.766,6035.77,576.9,22.960148,-13.627318,268.53,,,47632552,1,723534,8239112,obspack_ch4_1_GLOBALVIEWplus_v4.0_2021-10-14~ch4_iagos-caribic_aircraft-insitu_457_allvalid~8239112,IAGOS,In-service Aircraft for a Global Observing System,France,aircraft-insitu,KIT/IMK-ASF,Altitude (in meters above sea level). See provider_comment if available.,,,-1e+34,asl,,,,,,,,,,SU_20200108_584_MUC_LAX_10s_V05.txt~4321,,2020-01-08T23:03:25Z,0,2020-01-08T23:03:25Z,"warning, start/end time equals",2020,1,08,23,3,25,-116.766,34.333,1914.7,2020.02175056289,2020-01-08T22:16:25Z,15,2020,1,8,15,
2020,1,8,23,3,45,1578524625,1578524620,1578524625,2020.02175119536,1.9141e-06,,,,34.32,-116.797,5835.52,591.8,21.294964,-14.020121,269.85,,,47632546,1,723536,8239114,obspack_ch4_1_GLOBALVIEWplus_v4.0_2021-10-14~ch4_iagos-caribic_aircraft-insitu_457_allvalid~8239114,IAGOS,In-service Aircraft for a Global Observing System,France,aircraft-insitu,KIT/IMK-ASF,Altitude (in meters above sea level). See provider_comment if available.,,,-1e+34,asl,,,,,,,,,,SU_20200108_584_MUC_LAX_10s_V05.txt~4323,,2020-01-08T23:03:45Z,0,2020-01-08T23:03:45Z,"warning, start/end time equals",2020,1,08,23,3,45,-116.797,34.32,1914.1,2020.02175119536,2020-01-08T22:16:45Z,15,2020,1,8,15,
2020,1,8,23,4,5,1578524645,1578524640,1578524645,2020.02175182782,1.9162e-06,,,,34.309,-116.829,5621.61,609.9,21.391603,-12.033881,271.72,,,47632541,1,723538,8239116,obspack_ch4_1_GLOBALVIEWplus_v4.0_2021-10-14~ch4_iagos-caribic_aircraft-insitu_457_allvalid~8239116,IAGOS,In-service Aircraft for a Global Observing System,France,aircraft-insitu,KIT/IMK-ASF,Altitude (in meters above sea level). See provider_comment if available.,,,-1e+34,asl,,,,,,,,,,SU_20200108_584_MUC_LAX_10s_V05.txt~4325,,2020-01-08T23:04:05Z,0,2020-01-08T23:04:05Z,"warning, start/end time equals",2020,1,08,23,4,5,-116.829,34.309,1916.2,2020.02175182782,2020-01-08T22:16:05Z,15,2020,1,8,15,
2020,1,8,23,4,25,1578524665,1578524660,1578524665,2020.02175246028,1.916e-06,,,,34.299,-116.861,5436.87,619.8,20.853752,-7.4872622,272.59,,,47632536,1,723540,8239118,obspack_ch4_1_GLOBALVIEWplus_v4.0_2021-10-14~ch4_iagos-caribic_aircraft-insitu_457_allvalid~8239118,IAGOS,In-service Aircraft for a Global Observing System,France,aircraft-insitu,KIT/IMK-ASF,Altitude (in meters above sea level). See provider_comment if available.,,,-1e+34,asl,,,,,,,,,,SU_20200108_584_MUC_LAX_10s_V05.txt~4327,,2020-01-08T23:04:25Z,0,2020-01-08T23:04:25Z,"warning, start/end time equals",2020,1,08,23,4,25,-116.861,34.299,1916,2020.02175246028,2020-01-08T22:16:25Z,15,2020,1,8,15,
2020,1,8,23,4,45,1578524685,1578524680,1578524685,2020.02175309274,1.9152e-06,,,,34.291,-116.892,5340.49,622.1,20.873632,-6.365779,272.55,,,47632532,1,723542,8239120,obspack_ch4_1_GLOBALVIEWplus_v4.0_2021-10-14~ch4_iagos-caribic_aircraft-insitu_457_allvalid~8239120,IAGOS,In-service Aircraft for a Global Observing System,France,aircraft-insitu,KIT/IMK-ASF,Altitude (in meters above sea level). See provider_comment if available.,,,-1e+34,asl,,,,,,,,,,SU_20200108_584_MUC_LAX_10s_V05.txt~4329,,2020-01-08T23:04:45Z,0,2020-01-08T23:04:45Z,"warning, start/end time equals",2020,1,08,23,4,45,-116.892,34.291,1915.2,2020.02175309274,2020-01-08T22:17:45Z,15,2020,1,8,15,
2020,1,8,23,5,5,1578524705,1578524700,1578524705,2020.02175372521,1.9147e-06,,,,34.282,-116.923,5273.62,626.6,20.865469,-5.590885,273.05,,,47632528,1,723544,8239122,obspack_ch4_1_GLOBALVIEWplus_v4.0_2021-10-14~ch4_iagos-caribic_aircraft-insitu_457_allvalid~8239122,IAGOS,In-service Aircraft for a Global Observing System,France,aircraft-insitu,KIT/IMK-ASF,Altitude (in meters above sea level). See provider_comment if available.,,,-1e+34,asl,,,,,,,,,,SU_20200108_584_MUC_LAX_10s_V05.txt~4331,,2020-01-08T23:05:05Z,0,2020-01-08T23:05:05Z,"warning, start/end time equals",2020,1,08,23,5,5,-116.923,34.282,1914.7,2020.02175372521,2020-01-08T22:17:05Z,15,2020,1,8,15,
2020,1,8,23,5,25,1578524725,1578524720,1578524725,2020.02175435767,1.9143e-06,,,,34.274,-116.954,5241.55,628.4,20.294926,-5.819476,273.15,,,47632523,1,723546,8239124,obspack_ch4_1_GLOBALVIEWplus_v4.0_2021-10-14~ch4_iagos-caribic_aircraft-insitu_457_allvalid~8239124,IAGOS,In-service Aircraft for a Global Observing System,France,aircraft-insitu,KIT/IMK-ASF,Altitude (in meters above sea level). See provider_comment if available.,,,-1e+34,asl,,,,,,,,,,SU_20200108_584_MUC_LAX_10s_V05.txt~4333,,2020-01-08T23:05:25Z,0,2020-01-08T23:05:25Z,"warning, start/end time equals",2020,1,08,23,5,25,-116.954,34.274,1914.3,2020.02175435767,2020-01-08T22:17:25Z,15,2020,1,8,15,
2020,1,8,23,5,45,1578524745,1578524740,1578524745,2020.02175499013,1.9139e-06,,,,34.265,-116.985,5211.2,631.4,20.179514,-6.277492,273.51,,,47632518,1,723548,8239126,obspack_ch4_1_GLOBALVIEWplus_v4.0_2021-10-14~ch4_iagos-caribic_aircraft-insitu_457_allvalid~8239126,IAGOS,In-service Aircraft for a Global Observing System,France,aircraft-insitu,KIT/IMK-ASF,Altitude (in meters above sea level). See provider_comment if available.,,,-1e+34,asl,,,,,,,,,,SU_20200108_584_MUC_LAX_10s_V05.txt~4335,,2020-01-08T23:05:45Z,0,2020-01-08T23:05:45Z,"warning, start/end time equals",2020,1,08,23,5,45,-116.985,34.265,1913.9,2020.02175499013,2020-01-08T22:17:45Z,15,2020,1,8,15,
2020,1,8,23,6,5,1578524765,1578524760,1578524765,2020.0217556226,1.9144e-06,,,,34.257,-117.016,5162.06,635,20.34988,-5.7200937,273.8,,,47632514,1,723550,8239128,obspack_ch4_1_GLOBALVIEWplus_v4.0_2021-10-14~ch4_iagos-caribic_aircraft-insitu_457_allvalid~8239128,IAGOS,In-service Aircraft for a Global Observing System,France,aircraft-insitu,KIT/IMK-ASF,Altitude (in meters above sea level). See provider_comment if available.,,,-1e+34,asl,,,,,,,,,,SU_20200108_584_MUC_LAX_10s_V05.txt~4337,,2020-01-08T23:06:05Z,0,2020-01-08T23:06:05Z,"warning, start/end time equals",2020,1,08,23,6,5,-117.016,34.257,1914.4,2020.0217556226,2020-01-08T22:18:05Z,15,2020,1,8,15,
2020,1,8,23,6,25,1578524785,1578524780,1578524785,2020.02175625506,1.9144e-06,,,,34.249,-117.047,5059.77,643,21.529835,-4.0369782,274.4,,,47632509,1,723552,8239130,obspack_ch4_1_GLOBALVIEWplus_v4.0_2021-10-14~ch4_iagos-caribic_aircraft-insitu_457_allvalid~8239130,IAGOS,In-service Aircraft for a Global Observing System,France,aircraft-insitu,KIT/IMK-ASF,Altitude (in meters above sea level). See provider_comment if available.,,,-1e+34,asl,,,,,,,,,,SU_20200108_584_MUC_LAX_10s_V05.txt~4339,,2020-01-08T23:06:25Z,0,2020-01-08T23:06:25Z,"warning, start/end time equals",2020,1,08,23,6,25,-117.047,34.249,1914.4,2020.02175625506,2020-01-08T22:18:25Z,15,2020,1,8,15,
2020,1,8,23,6,45,1578524805,1578524800,1578524805,2020.02175688752,1.9134e-06,,,,34.24,-117.077,4912.67,655.7,22.490696,-3.240959,275.71,,,47632505,1,723554,8239132,obspack_ch4_1_GLOBALVIEWplus_v4.0_2021-10-14~ch4_iagos-caribic_aircraft-insitu_457_allvalid~8239132,IAGOS,In-service Aircraft for a Global Observing System,France,aircraft-insitu,KIT/IMK-ASF,Altitude (in meters above sea level). See provider_comment if available.,,,-1e+34,asl,,,,,,,,,,SU_20200108_584_MUC_LAX_10s_V05.txt~4341,,2020-01-08T23:06:45Z,0,2020-01-08T23:06:45Z,"warning, start/end time equals",2020,1,08,23,6,45,-117.077,34.24,1913.4,2020.02175688752,2020-01-08T22:18:45Z,15,2020,1,8,15,
2020,1,8,23,7,5,1578524825,1578524820,1578524825,2020.02175751999,1.9121e-06,,,,34.232,-117.107,4760.92,668.6,23.124493,-3.2787504,276.97,,,47632499,1,723556,8239134,obspack_ch4_1_GLOBALVIEWplus_v4.0_2021-10-14~ch4_iagos-caribic_aircraft-insitu_457_allvalid~8239134,IAGOS,In-service Aircraft for a Global Observing System,France,aircraft-insitu,KIT/IMK-ASF,Altitude (in meters above sea level). See provider_comment if available.,,,-1e+34,asl,,,,,,,,,,SU_20200108_584_MUC_LAX_10s_V05.txt~4343,,2020-01-08T23:07:05Z,0,2020-01-08T23:07:05Z,"warning, start/end time equals",2020,1,08,23,7,5,-117.107,34.232,1912.1,2020.02175751999,2020-01-08T22:18:05Z,15,2020,1,8,15,
2020,1,8,23,7,25,1578524845,1578524840,1578524845,2020.02175815245,1.9137e-06,,,,34.223,-117.137,4605.31,679.8,23.34655,-3.0985074,278.07,,,47632494,1,723558,8239136,obspack_ch4_1_GLOBALVIEWplus_v4.0_2021-10-14~ch4_iagos-caribic_aircraft-insitu_457_allvalid~8239136,IAGOS,In-service Aircraft for a Global Observing System,France,aircraft-insitu,KIT/IMK-ASF,Altitude (in meters above sea level). See provider_comment if available.,,,-1e+34,asl,,,,,,,,,,SU_20200108_584_MUC_LAX_10s_V05.txt~4345,,2020-01-08T23:07:25Z,0,2020-01-08T23:07:25Z,"warning, start/end time equals",2020,1,08,23,7,25,-117.137,34.223,1913.7,2020.02175815245,2020-01-08T22:18:25Z,15,2020,1,8,15,
2020,1,8,23,7,45,1578524865,1578524860,1578524865,2020.02175878491,1.92e-06,,,,34.215,-117.167,4450.51,688,22.822565,-4.4527946,278.39,,,47632489,1,723560,8239138,obspack_ch4_1_GLOBALVIEWplus_v4.0_2021-10-14~ch4_iagos-caribic_aircraft-insitu_457_allvalid~8239138,IAGOS,In-service Aircraft for a Global Observing System,France,aircraft-insitu,KIT/IMK-ASF,Altitude (in meters above sea level). See provider_comment if available.,,,-1e+34,asl,,,,,,,,,,SU_20200108_584_MUC_LAX_10s_V05.txt~4347,,2020-01-08T23:07:45Z,0,2020-01-08T23:07:45Z,"warning, start/end time equals",2020,1,08,23,7,45,-117.167,34.215,1920,2020.02175878491,2020-01-08T22:19:45Z,15,2020,1,8,15,
2020,1,8,23,8,5,1578524885,1578524880,1578524885,2020.02175941738,1.9208e-06,,,,34.207,-117.196,4300.15,698,21.497475,-6.0669656,279.05,,,47632485,1,723562,8239140,obspack_ch4_1_GLOBALVIEWplus_v4.0_2021-10-14~ch4_iagos-caribic_aircraft-insitu_457_allvalid~8239140,IAGOS,In-service Aircraft for a Global Observing System,France,aircraft-insitu,KIT/IMK-ASF,Altitude (in meters above sea level). See provider_comment if available.,,,-1e+34,asl,,,,,,,,,,SU_20200108_584_MUC_LAX_10s_V05.txt~4349,,2020-01-08T23:08:05Z,0,2020-01-08T23:08:05Z,"warning, start/end time equals",2020,1,08,23,8,5,-117.196,34.207,1920.8,2020.02175941738,2020-01-08T22:19:05Z,15,2020,1,8,15,
2020,1,8,23,8,25,1578524905,1578524900,1578524905,2020.02176004984,1.9235e-06,,,,34.199,-117.225,4197.74,707.3,20.510963,-7.0664954,279.93,,,47632478,1,723564,8239142,obspack_ch4_1_GLOBALVIEWplus_v4.0_2021-10-14~ch4_iagos-caribic_aircraft-insitu_457_allvalid~8239142,IAGOS,In-service Aircraft for a Global Observing System,France,aircraft-insitu,KIT/IMK-ASF,Altitude (in meters above sea level). See provider_comment if available.,,,-1e+34,asl,,,,,,,,,,SU_20200108_584_MUC_LAX_10s_V05.txt~4351,,2020-01-08T23:08:25Z,0,2020-01-08T23:08:25Z,"warning, start/end time equals",2020,1,08,23,8,25,-117.225,34.199,1923.5,2020.02176004984,2020-01-08T22:19:25Z,15,2020,1,8,15,
2020,1,8,23,8,45,1578524925,1578524920,1578524925,2020.0217606823,1.9251e-06,,,,34.192,-117.254,4074.9,715.5,18.678385,-8.622714,280.41,,,47632475,1,723566,8239144,obspack_ch4_1_GLOBALVIEWplus_v4.0_2021-10-14~ch4_iagos-caribic_aircraft-insitu_457_allvalid~8239144,IAGOS,In-service Aircraft for a Global Observing System,France,aircraft-insitu,KIT/IMK-ASF,Altitude (in meters above sea level). See provider_comment if available.,,,-1e+34,asl,,,,,,,,,,SU_20200108_584_MUC_LAX_10s_V05.txt~4353,,2020-01-08T23:08:45Z,0,2020-01-08T23:08:45Z,"warning, start/end time equals",2020,1,08,23,8,45,-117.254,34.192,1925.1,2020.0217606823,2020-01-08T22:19:45Z,15,2020,1,8,15,
2020,1,8,23,9,5,1578524945,1578524940,1578524945,2020.02176131476,1.9241e-06,,,,34.184,-117.284,3953.93,725.8,16.847782,-9.648816,281.12,,,47632470,1,723568,8239146,obspack_ch4_1_GLOBALVIEWplus_v4.0_2021-10-14~ch4_iagos-caribic_aircraft-insitu_457_allvalid~8239146,IAGOS,In-service Aircraft for a Global Observing System,France,aircraft-insitu,KIT/IMK-ASF,Altitude (in meters above sea level). See provider_comment if available.,,,-1e+34,asl,,,,,,,,,,SU_20200108_584_MUC_LAX_10s_V05.txt~4355,,2020-01-08T23:09:05Z,0,2020-01-08T23:09:05Z,"warning, start/end time equals",2020,1,08,23,9,5,-117.284,34.184,1924.1,2020.02176131476,2020-01-08T22:19:05Z,15,2020,1,8,15,
2020,1,8,23,9,25,1578524965,1578524960,1578524965,2020.02176194723,1.9239e-06,,,,34.177,-117.314,3832.92,735.9,15.170987,-8.6533785,281.97,,,47632464,1,723570,8239148,obspack_ch4_1_GLOBALVIEWplus_v4.0_2021-10-14~ch4_iagos-caribic_aircraft-insitu_457_allvalid~8239148,IAGOS,In-service Aircraft for a Global Observing System,France,aircraft-insitu,KIT/IMK-ASF,Altitude (in meters above sea level). See provider_comment if available.,,,-1e+34,asl,,,,,,,,,,SU_20200108_584_MUC_LAX_10s_V05.txt~4357,,2020-01-08T23:09:25Z,0,2020-01-08T23:09:25Z,"warning, start/end time equals",2020,1,08,23,9,25,-117.314,34.177,1923.9,2020.02176194723,2020-01-08T22:20:25Z,15,2020,1,8,15,
2020,1,8,23,9,45,1578524985,1578524980,1578524985,2020.02176257969,1.9249e-06,,,,34.169,-117.344,3710.7,748,15.180069,-5.2773485,282.15,,,47632460,1,723572,8239150,obspack_ch4_1_GLOBALVIEWplus_v4.0_2021-10-14~ch4_iagos-caribic_aircraft-insitu_457_allvalid~8239150,IAGOS,In-service Aircraft for a Global Observing System,France,aircraft-insitu,KIT/IMK-ASF,Altitude (in meters above sea level). See provider_comment if available.,,,-1e+34,asl,,,,,,,,,,SU_20200108_584_MUC_LAX_10s_V05.txt~4359,,2020-01-08T23:09:45Z,0,2020-01-08T23:09:45Z,"warning, start/end time equals",2020,1,08,23,9,45,-117.344,34.169,1924.9,2020.02176257969,2020-01-08T22:20:45Z,15,2020,1,8,15,
2020,1,8,23,10,5,1578525005,1578525000,1578525005,2020.02176321215,1.9251e-06,,,,34.162,-117.373,3588.96,757.5,15.71227,-4.2306714,283.05,,,47632455,1,723574,8239152,obspack_ch4_1_GLOBALVIEWplus_v4.0_2021-10-14~ch4_iagos-caribic_aircraft-insitu_457_allvalid~8239152,IAGOS,In-service Aircraft for a Global Observing System,France,aircraft-insitu,KIT/IMK-ASF,Altitude (in meters above sea level). See provider_comment if available.,,,-1e+34,asl,,,,,,,,,,SU_20200108_584_MUC_LAX_10s_V05.txt~4361,,2020-01-08T23:10:05Z,0,2020-01-08T23:10:05Z,"warning, start/end time equals",2020,1,08,23,10,5,-117.373,34.162,1925.1,2020.02176321215,2020-01-08T22:20:05Z,15,2020,1,8,15,
2020,1,8,23,10,25,1578525025,1578525020,1578525025,2020.02176384462,1.926e-06,,,,34.154,-117.403,3467.5,766.5,15.8785515,-3.1843772,283.59,,,47632450,1,723576,8239154,obspack_ch4_1_GLOBALVIEWplus_v4.0_2021-10-14~ch4_iagos-caribic_aircraft-insitu_457_allvalid~8239154,IAGOS,In-service Aircraft for a Global Observing System,France,aircraft-insitu,KIT/IMK-ASF,Altitude (in meters above sea level). See provider_comment if available.,,,-1e+34,asl,,,,,,,,,,SU_20200108_584_MUC_LAX_10s_V05.txt~4363,,2020-01-08T23:10:25Z,0,2020-01-08T23:10:25Z,"warning, start/end time equals",2020,1,08,23,10,25,-117.403,34.154,1926,2020.02176384462,2020-01-08T22:20:25Z,15,2020,1,8,15,
2020,1,8,23,10,45,1578525045,1578525040,1578525045,2020.02176447708,1.9241e-06,,,,34.147,-117.431,3346.61,776.4,15.406013,-3.3337123,284.15,,,47632446,1,723578,8239156,obspack_ch4_1_GLOBALVIEWplus_v4.0_2021-10-14~ch4_iagos-caribic_aircraft-insitu_457_allvalid~8239156,IAGOS,In-service Aircraft for a Global Observing System,France,aircraft-insitu,KIT/IMK-ASF,Altitude (in meters above sea level). See provider_comment if available.,,,-1e+34,asl,,,,,,,,,,SU_20200108_584_MUC_LAX_10s_V05.txt~4365,,2020-01-08T23:10:45Z,0,2020-01-08T23:10:45Z,"warning, start/end time equals",2020,1,08,23,10,45,-117.431,34.147,1924.1,2020.02176447708,2020-01-08T22:21:45Z,15,2020,1,8,15,
2020,1,8,23,11,5,1578525065,1578525060,1578525065,2020.02176510954,1.9227e-06,,,,34.14,-117.46,3237.95,786.3,15.809274,-2.6824539,284.96,,,47632441,1,723580,8239158,obspack_ch4_1_GLOBALVIEWplus_v4.0_2021-10-14~ch4_iagos-caribic_aircraft-insitu_457_allvalid~8239158,IAGOS,In-service Aircraft for a Global Observing System,France,aircraft-insitu,KIT/IMK-ASF,Altitude (in meters above sea level). See provider_comment if available.,,,-1e+34,asl,,,,,,,,,,SU_20200108_584_MUC_LAX_10s_V05.txt~4367,,2020-01-08T23:11:05Z,0,2020-01-08T23:11:05Z,"warning, start/end time equals",2020,1,08,23,11,5,-117.46,34.14,1922.7,2020.02176510954,2020-01-08T22:21:05Z,15,2020,1,8,15,
2020,1,8,23,11,25,1578525085,1578525080,1578525085,2020.02176574201,1.922e-06,,,,34.132,-117.488,3135.97,794.1,16.084227,-2.3951945,285.53,,,47632436,1,723582,8239160,obspack_ch4_1_GLOBALVIEWplus_v4.0_2021-10-14~ch4_iagos-caribic_aircraft-insitu_457_allvalid~8239160,IAGOS,In-service Aircraft for a Global Observing System,France,aircraft-insitu,KIT/IMK-ASF,Altitude (in meters above sea level). See provider_comment if available.,,,-1e+34,asl,,,,,,,,,,SU_20200108_584_MUC_LAX_10s_V05.txt~4369,,2020-01-08T23:11:25Z,0,2020-01-08T23:11:25Z,"warning, start/end time equals",2020,1,08,23,11,25,-117.488,34.132,1922,2020.02176574201,2020-01-08T22:21:25Z,15,2020,1,8,15,
2020,1,8,23,11,45,1578525105,1578525100,1578525105,2020.02176637447,1.9225e-06,,,,34.125,-117.516,3053.85,801.5,15.751399,-3.650978,286.13,,,47632431,1,723584,8239162,obspack_ch4_1_GLOBALVIEWplus_v4.0_2021-10-14~ch4_iagos-caribic_aircraft-insitu_457_allvalid~8239162,IAGOS,In-service Aircraft for a Global Observing System,France,aircraft-insitu,KIT/IMK-ASF,Altitude (in meters above sea level). See provider_comment if available.,,,-1e+34,asl,,,,,,,,,,SU_20200108_584_MUC_LAX_10s_V05.txt~4371,,2020-01-08T23:11:45Z,0,2020-01-08T23:11:45Z,"warning, start/end time equals",2020,1,08,23,11,45,-117.516,34.125,1922.5,2020.02176637447,2020-01-08T22:21:45Z,15,2020,1,8,15,
2020,1,8,23,12,5,1578525125,1578525120,1578525125,2020.02176700693,1.9233e-06,,,,34.119,-117.545,3031.3,804.4,15.595312,-4.7679653,286.45,,,47632427,1,723586,8239164,obspack_ch4_1_GLOBALVIEWplus_v4.0_2021-10-14~ch4_iagos-caribic_aircraft-insitu_457_allvalid~8239164,IAGOS,In-service Aircraft for a Global Observing System,France,aircraft-insitu,KIT/IMK-ASF,Altitude (in meters above sea level). See provider_comment if available.,,,-1e+34,asl,,,,,,,,,,SU_20200108_584_MUC_LAX_10s_V05.txt~4373,,2020-01-08T23:12:05Z,0,2020-01-08T23:12:05Z,"warning, start/end time equals",2020,1,08,23,12,5,-117.545,34.119,1923.3,2020.02176700693,2020-01-08T22:21:05Z,15,2020,1,8,15,
2020,1,8,23,12,25,1578525145,1578525140,1578525145,2020.0217676394,1.9254e-06,,,,34.116,-117.574,2927.88,806.5,14.347952,-3.8364713,286.52,,,47632423,1,723588,8239166,obspack_ch4_1_GLOBALVIEWplus_v4.0_2021-10-14~ch4_iagos-caribic_aircraft-insitu_457_allvalid~8239166,IAGOS,In-service Aircraft for a Global Observing System,France,aircraft-insitu,KIT/IMK-ASF,Altitude (in meters above sea level). See provider_comment if available.,,,-1e+34,asl,,,,,,,,,,SU_20200108_584_MUC_LAX_10s_V05.txt~4375,,2020-01-08T23:12:25Z,0,2020-01-08T23:12:25Z,"warning, start/end time equals",2020,1,08,23,12,25,-117.574,34.116,1925.4,2020.0217676394,2020-01-08T22:22:25Z,15,2020,1,8,15,
2020,1,8,23,12,45,1578525165,1578525160,1578525165,2020.02176827186,1.9463e-06,,,,34.113,-117.601,2819.1,801.1,12.6759,-4.0210323,285.43,,,47632420,1,723590,8239168,obspack_ch4_1_GLOBALVIEWplus_v4.0_2021-10-14~ch4_iagos-caribic_aircraft-insitu_457_allvalid~8239168,IAGOS,In-service Aircraft for a Global Observing System,France,aircraft-insitu,KIT/IMK-ASF,Altitude (in meters above sea level). See provider_comment if available.,,,-1e+34,asl,,,,,,,,,,SU_20200108_584_MUC_LAX_10s_V05.txt~4377,,2020-01-08T23:12:45Z,0,2020-01-08T23:12:45Z,"warning, start/end time equals",2020,1,08,23,12,45,-117.601,34.113,1946.3,2020.02176827186,2020-01-08T22:22:45Z,15,2020,1,8,15,
2020,1,8,23,13,5,1578525185,1578525180,1578525185,2020.02176890432,1.9515e-06,,,,34.111,-117.627,2678.89,804.7,9.586659,-4.5890436,285.09,,,47632417,1,723592,8239170,obspack_ch4_1_GLOBALVIEWplus_v4.0_2021-10-14~ch4_iagos-caribic_aircraft-insitu_457_allvalid~8239170,IAGOS,In-service Aircraft for a Global Observing System,France,aircraft-insitu,KIT/IMK-ASF,Altitude (in meters above sea level). See provider_comment if available.,,,-1e+34,asl,,,,,,,,,,SU_20200108_584_MUC_LAX_10s_V05.txt~4379,,2020-01-08T23:13:05Z,0,2020-01-08T23:13:05Z,"warning, start/end time equals",2020,1,08,23,13,5,-117.627,34.111,1951.5,2020.02176890432,2020-01-08T22:22:05Z,15,2020,1,8,15,
2020,1,8,23,13,25,1578525205,1578525200,1578525205,2020.02176953678,1.9547e-06,,,,34.108,-117.652,2530.24,819.1,6.4133105,-1.9143288,284.86,,,47632415,1,723594,8239172,obspack_ch4_1_GLOBALVIEWplus_v4.0_2021-10-14~ch4_iagos-caribic_aircraft-insitu_457_allvalid~8239172,IAGOS,In-service Aircraft for a Global Observing System,France,aircraft-insitu,KIT/IMK-ASF,Altitude (in meters above sea level). See provider_comment if available.,,,-1e+34,asl,,,,,,,,,,SU_20200108_584_MUC_LAX_10s_V05.txt~4381,,2020-01-08T23:13:25Z,0,2020-01-08T23:13:25Z,"warning, start/end time equals",2020,1,08,23,13,25,-117.652,34.108,1954.7,2020.02176953678,2020-01-08T22:22:25Z,15,2020,1,8,15,
2020,1,8,23,13,45,1578525225,1578525220,1578525225,2020.02177016925,1.96e-06,,,,34.106,-117.678,2390.91,831.7,3.940353,1.0565516,284.07,,,47632412,1,723596,8239174,obspack_ch4_1_GLOBALVIEWplus_v4.0_2021-10-14~ch4_iagos-caribic_aircraft-insitu_457_allvalid~8239174,IAGOS,In-service Aircraft for a Global Observing System,France,aircraft-insitu,KIT/IMK-ASF,Altitude (in meters above sea level). See provider_comment if available.,,,-1e+34,asl,,,,,,,,,,SU_20200108_584_MUC_LAX_10s_V05.txt~4383,,2020-01-08T23:13:45Z,0,2020-01-08T23:13:45Z,"warning, start/end time equals",2020,1,08,23,13,45,-117.678,34.106,1960,2020.02177016925,2020-01-08T22:23:45Z,15,2020,1,8,15,
2020,1,8,23,14,5,1578525245,1578525240,1578525245,2020.02177080171,1.9906e-06,,,,34.103,-117.703,2318.67,839.4,4.0560913,1.1776358,284.6,,,47632408,1,723598,8239176,obspack_ch4_1_GLOBALVIEWplus_v4.0_2021-10-14~ch4_iagos-caribic_aircraft-insitu_457_allvalid~8239176,IAGOS,In-service Aircraft for a Global Observing System,France,aircraft-insitu,KIT/IMK-ASF,Altitude (in meters above sea level). See provider_comment if available.,,,-1e+34,asl,,,,,,,,,,SU_20200108_584_MUC_LAX_10s_V05.txt~4385,,2020-01-08T23:14:05Z,0,2020-01-08T23:14:05Z,"warning, start/end time equals",2020,1,08,23,14,5,-117.703,34.103,1990.6,2020.02177080171,2020-01-08T22:23:05Z,15,2020,1,8,15,
2020,1,8,23,14,25,1578525265,1578525260,1578525265,2020.02177143417,2.0568e-06,,,,34.101,-117.729,2190.08,852.1,4.2247796,-0.5824793,285.35,,,47632405,1,723600,8239178,obspack_ch4_1_GLOBALVIEWplus_v4.0_2021-10-14~ch4_iagos-caribic_aircraft-insitu_457_allvalid~8239178,IAGOS,In-service Aircraft for a Global Observing System,France,aircraft-insitu,KIT/IMK-ASF,Altitude (in meters above sea level). See provider_comment if available.,,,-1e+34,asl,,,,,,,,,,SU_20200108_584_MUC_LAX_10s_V05.txt~4387,,2020-01-08T23:14:25Z,0,2020-01-08T23:14:25Z,"warning, start/end time equals",2020,1,08,23,14,25,-117.729,34.101,2056.8,2020.02177143417,2020-01-08T22:23:25Z,15,2020,1,8,15,
2020,1,8,23,14,45,1578525285,1578525280,1578525285,2020.02177206664,2.0401e-06,,,,34.098,-117.754,2057.22,864.1,3.1677482,-2.3525774,284.96,,,47632402,1,723602,8239180,obspack_ch4_1_GLOBALVIEWplus_v4.0_2021-10-14~ch4_iagos-caribic_aircraft-insitu_457_allvalid~8239180,IAGOS,In-service Aircraft for a Global Observing System,France,aircraft-insitu,KIT/IMK-ASF,Altitude (in meters above sea level). See provider_comment if available.,,,-1e+34,asl,,,,,,,,,,SU_20200108_584_MUC_LAX_10s_V05.txt~4389,,2020-01-08T23:14:45Z,0,2020-01-08T23:14:45Z,"warning, start/end time equals",2020,1,08,23,14,45,-117.754,34.098,2040.1,2020.02177206664,2020-01-08T22:23:45Z,15,2020,1,8,15,
2020,1,8,23,15,5,1578525305,1578525300,1578525305,2020.0217726991,2.0734e-06,,,,34.095,-117.78,1927.83,873.7,2.14249,-0.94271815,285.24,,,47632400,1,723604,8239182,obspack_ch4_1_GLOBALVIEWplus_v4.0_2021-10-14~ch4_iagos-caribic_aircraft-insitu_457_allvalid~8239182,IAGOS,In-service Aircraft for a Global Observing System,France,aircraft-insitu,KIT/IMK-ASF,Altitude (in meters above sea level). See provider_comment if available.,,,-1e+34,asl,,,,,,,,,,SU_20200108_584_MUC_LAX_10s_V05.txt~4391,,2020-01-08T23:15:05Z,0,2020-01-08T23:15:05Z,"warning, start/end time equals",2020,1,08,23,15,5,-117.78,34.095,2073.4,2020.0217726991,2020-01-08T22:23:05Z,15,2020,1,8,15,
2020,1,8,23,15,25,1578525325,1578525320,1578525325,2020.02177333156,2.087e-06,,,,34.093,-117.804,1855.29,871.4,1.8746548,-2.2548277,284.94,,,47632398,1,723606,8239184,obspack_ch4_1_GLOBALVIEWplus_v4.0_2021-10-14~ch4_iagos-caribic_aircraft-insitu_457_allvalid~8239184,IAGOS,In-service Aircraft for a Global Observing System,France,aircraft-insitu,KIT/IMK-ASF,Altitude (in meters above sea level). See provider_comment if available.,,,-1e+34,asl,,,,,,,,,,SU_20200108_584_MUC_LAX_10s_V05.txt~4393,,2020-01-08T23:15:25Z,0,2020-01-08T23:15:25Z,"warning, start/end time equals",2020,1,08,23,15,25,-117.804,34.093,2087,2020.02177333156,2020-01-08T22:24:25Z,15,2020,1,8,15,
2020,1,8,23,15,45,1578525345,1578525340,1578525345,2020.02177396403,2.0977e-06,,,,34.091,-117.826,1807.86,869.8,3.414061,-3.6394227,283.54,,,47632395,1,723608,8239186,obspack_ch4_1_GLOBALVIEWplus_v4.0_2021-10-14~ch4_iagos-caribic_aircraft-insitu_457_allvalid~8239186,IAGOS,In-service Aircraft for a Global Observing System,France,aircraft-insitu,KIT/IMK-ASF,Altitude (in meters above sea level). See provider_comment if available.,,,-1e+34,asl,,,,,,,,,,SU_20200108_584_MUC_LAX_10s_V05.txt~4395,,2020-01-08T23:15:45Z,0,2020-01-08T23:15:45Z,"warning, start/end time equals",2020,1,08,23,15,45,-117.826,34.091,2097.7,2020.02177396403,2020-01-08T22:24:45Z,15,2020,1,8,15,
2020,1,8,23,16,5,1578525365,1578525360,1578525365,2020.02177459649,2.1073e-06,,,,34.089,-117.847,1740.5,877.2,4.0329366,-3.7991185,283.83,,,47632392,1,723610,8239188,obspack_ch4_1_GLOBALVIEWplus_v4.0_2021-10-14~ch4_iagos-caribic_aircraft-insitu_457_allvalid~8239188,IAGOS,In-service Aircraft for a Global Observing System,France,aircraft-insitu,KIT/IMK-ASF,Altitude (in meters above sea level). See provider_comment if available.,,,-1e+34,asl,,,,,,,,,,SU_20200108_584_MUC_LAX_10s_V05.txt~4397,,2020-01-08T23:16:05Z,0,2020-01-08T23:16:05Z,"warning, start/end time equals",2020,1,08,23,16,5,-117.847,34.089,2107.3,2020.02177459649,2020-01-08T22:24:05Z,15,2020,1,8,15,
2020,1,8,23,16,25,1578525385,1578525380,1578525385,2020.02177522895,2.1173e-06,,,,34.087,-117.869,1606.57,890.7,3.4708214,-7.2701964,283.27,,,47632390,1,723612,8239190,obspack_ch4_1_GLOBALVIEWplus_v4.0_2021-10-14~ch4_iagos-caribic_aircraft-insitu_457_allvalid~8239190,IAGOS,In-service Aircraft for a Global Observing System,France,aircraft-insitu,KIT/IMK-ASF,Altitude (in meters above sea level). See provider_comment if available.,,,-1e+34,asl,,,,,,,,,,SU_20200108_584_MUC_LAX_10s_V05.txt~4399,,2020-01-08T23:16:25Z,0,2020-01-08T23:16:25Z,"warning, start/end time equals",2020,1,08,23,16,25,-117.869,34.087,2117.3,2020.02177522895,2020-01-08T22:24:25Z,15,2020,1,8,15,
2020,1,8,23,16,45,1578525405,1578525400,1578525405,2020.02177586141,2.1119e-06,,,,34.084,-117.89,1480.63,902.8,2.2891228,-5.141454,283.36,,,47632385,1,723614,8239192,obspack_ch4_1_GLOBALVIEWplus_v4.0_2021-10-14~ch4_iagos-caribic_aircraft-insitu_457_allvalid~8239192,IAGOS,In-service Aircraft for a Global Observing System,France,aircraft-insitu,KIT/IMK-ASF,Altitude (in meters above sea level). See provider_comment if available.,,,-1e+34,asl,,,,,,,,,,SU_20200108_584_MUC_LAX_10s_V05.txt~4401,,2020-01-08T23:16:45Z,0,2020-01-08T23:16:45Z,"warning, start/end time equals",2020,1,08,23,16,45,-117.89,34.084,2111.9,2020.02177586141,2020-01-08T22:25:45Z,15,2020,1,8,15,
2020,1,8,23,17,5,1578525425,1578525420,1578525425,2020.02177649388,2.1343e-06,,,,34.082,-117.911,1380.32,912.5,2.3371494,-5.4740744,283.45,,,47632383,1,723616,8239194,obspack_ch4_1_GLOBALVIEWplus_v4.0_2021-10-14~ch4_iagos-caribic_aircraft-insitu_457_allvalid~8239194,IAGOS,In-service Aircraft for a Global Observing System,France,aircraft-insitu,KIT/IMK-ASF,Altitude (in meters above sea level). See provider_comment if available.,,,-1e+34,asl,,,,,,,,,,SU_20200108_584_MUC_LAX_10s_V05.txt~4403,,2020-01-08T23:17:05Z,0,2020-01-08T23:17:05Z,"warning, start/end time equals",2020,1,08,23,17,5,-117.911,34.082,2134.3,2020.02177649388,2020-01-08T22:25:05Z,15,2020,1,8,15,
2020,1,8,23,17,25,1578525445,1578525440,1578525445,2020.02177712634,2.1814e-06,,,,34.08,-117.932,1304.24,918.3,3.9522493,-4.9349785,283.33,,,47632380,1,723618,8239196,obspack_ch4_1_GLOBALVIEWplus_v4.0_2021-10-14~ch4_iagos-caribic_aircraft-insitu_457_allvalid~8239196,IAGOS,In-service Aircraft for a Global Observing System,France,aircraft-insitu,KIT/IMK-ASF,Altitude (in meters above sea level). See provider_comment if available.,,,-1e+34,asl,,,,,,,,,,SU_20200108_584_MUC_LAX_10s_V05.txt~4405,,2020-01-08T23:17:25Z,0,2020-01-08T23:17:25Z,"warning, start/end time equals",2020,1,08,23,17,25,-117.932,34.08,2181.4,2020.02177712634,2020-01-08T22:25:25Z,15,2020,1,8,15,
2020,1,8,23,17,45,1578525465,1578525460,1578525465,2020.0217777588,2.1757e-06,,,,34.078,-117.951,1254.13,919.3,3.2473857,-3.271278,282.66,,,47632377,1,723620,8239198,obspack_ch4_1_GLOBALVIEWplus_v4.0_2021-10-14~ch4_iagos-caribic_aircraft-insitu_457_allvalid~8239198,IAGOS,In-service Aircraft for a Global Observing System,France,aircraft-insitu,KIT/IMK-ASF,Altitude (in meters above sea level). See provider_comment if available.,,,-1e+34,asl,,,,,,,,,,SU_20200108_584_MUC_LAX_10s_V05.txt~4407,,2020-01-08T23:17:45Z,0,2020-01-08T23:17:45Z,"warning, start/end time equals",2020,1,08,23,17,45,-117.951,34.078,2175.7,2020.0217777588,2020-01-08T22:25:45Z,15,2020,1,8,15,
2020,1,8,23,18,5,1578525485,1578525480,1578525485,2020.02177839127,2.1507e-06,,,,34.076,-117.971,1220.36,922.9,2.1639647,-3.088167,283.03,,,47632375,1,723622,8239200,obspack_ch4_1_GLOBALVIEWplus_v4.0_2021-10-14~ch4_iagos-caribic_aircraft-insitu_457_allvalid~8239200,IAGOS,In-service Aircraft for a Global Observing System,France,aircraft-insitu,KIT/IMK-ASF,Altitude (in meters above sea level). See provider_comment if available.,,,-1e+34,asl,,,,,,,,,,SU_20200108_584_MUC_LAX_10s_V05.txt~4409,,2020-01-08T23:18:05Z,0,2020-01-08T23:18:05Z,"warning, start/end time equals",2020,1,08,23,18,5,-117.971,34.076,2150.7,2020.02177839127,2020-01-08T22:26:05Z,15,2020,1,8,15,
2020,1,8,23,18,25,1578525505,1578525500,1578525505,2020.02177902373,2.1361e-06,,,,34.074,-117.99,1220.82,923.9,2.0995195,-2.6814697,283.15,,,47632372,1,723624,8239202,obspack_ch4_1_GLOBALVIEWplus_v4.0_2021-10-14~ch4_iagos-caribic_aircraft-insitu_457_allvalid~8239202,IAGOS,In-service Aircraft for a Global Observing System,France,aircraft-insitu,KIT/IMK-ASF,Altitude (in meters above sea level). See provider_comment if available.,,,-1e+34,asl,,,,,,,,,,SU_20200108_584_MUC_LAX_10s_V05.txt~4411,,2020-01-08T23:18:25Z,0,2020-01-08T23:18:25Z,"warning, start/end time equals",2020,1,08,23,18,25,-117.99,34.074,2136.1,2020.02177902373,2020-01-08T22:26:25Z,15,2020,1,8,15,
2020,1,8,23,18,45,1578525525,1578525520,1578525525,2020.02177965619,2.1311e-06,,,,34.072,-118.011,1196,926,2.4490523,-3.5915227,283.4,,,47632370,1,723626,8239204,obspack_ch4_1_GLOBALVIEWplus_v4.0_2021-10-14~ch4_iagos-caribic_aircraft-insitu_457_allvalid~8239204,IAGOS,In-service Aircraft for a Global Observing System,France,aircraft-insitu,KIT/IMK-ASF,Altitude (in meters above sea level). See provider_comment if available.,,,-1e+34,asl,,,,,,,,,,SU_20200108_584_MUC_LAX_10s_V05.txt~4413,,2020-01-08T23:18:45Z,0,2020-01-08T23:18:45Z,"warning, start/end time equals",2020,1,08,23,18,45,-118.011,34.072,2131.1,2020.02177965619,2020-01-08T22:26:45Z,15,2020,1,8,15,
2020,1,8,23,19,5,1578525545,1578525540,1578525545,2020.02178028866,2.1293e-06,,,,34.07,-118.029,1093.74,937.4,2.22501,-1.0470102,283.92,,,47632368,1,723628,8239206,obspack_ch4_1_GLOBALVIEWplus_v4.0_2021-10-14~ch4_iagos-caribic_aircraft-insitu_457_allvalid~8239206,IAGOS,In-service Aircraft for a Global Observing System,France,aircraft-insitu,KIT/IMK-ASF,Altitude (in meters above sea level). See provider_comment if available.,,,-1e+34,asl,,,,,,,,,,SU_20200108_584_MUC_LAX_10s_V05.txt~4415,,2020-01-08T23:19:05Z,0,2020-01-08T23:19:05Z,"warning, start/end time equals",2020,1,08,23,19,5,-118.029,34.07,2129.3,2020.02178028866,2020-01-08T22:26:05Z,15,2020,1,8,15,
2020,1,8,23,19,25,1578525565,1578525560,1578525565,2020.02178092112,2.1441e-06,,,,34.068,-118.05,993.83,947.7,1.719466,0.8401261,284.45,,,47632364,1,723630,8239208,obspack_ch4_1_GLOBALVIEWplus_v4.0_2021-10-14~ch4_iagos-caribic_aircraft-insitu_457_allvalid~8239208,IAGOS,In-service Aircraft for a Global Observing System,France,aircraft-insitu,KIT/IMK-ASF,Altitude (in meters above sea level). See provider_comment if available.,,,-1e+34,asl,,,,,,,,,,SU_20200108_584_MUC_LAX_10s_V05.txt~4417,,2020-01-08T23:19:25Z,0,2020-01-08T23:19:25Z,"warning, start/end time equals",2020,1,08,23,19,25,-118.05,34.068,2144.1,2020.02178092112,2020-01-08T22:27:25Z,15,2020,1,8,15,
2020,1,8,23,19,45,1578525585,1578525580,1578525585,2020.02178155358,2.1422e-06,,,,34.066,-118.069,894.92,958.7,0.22305322,1.8540643,285.15,,,47632360,1,723632,8239210,obspack_ch4_1_GLOBALVIEWplus_v4.0_2021-10-14~ch4_iagos-caribic_aircraft-insitu_457_allvalid~8239210,IAGOS,In-service Aircraft for a Global Observing System,France,aircraft-insitu,KIT/IMK-ASF,Altitude (in meters above sea level). See provider_comment if available.,,,-1e+34,asl,,,,,,,,,,SU_20200108_584_MUC_LAX_10s_V05.txt~4419,,2020-01-08T23:19:45Z,0,2020-01-08T23:19:45Z,"warning, start/end time equals",2020,1,08,23,19,45,-118.069,34.066,2142.2,2020.02178155358,2020-01-08T22:27:45Z,15,2020,1,8,15,
2020,1,8,23,20,5,1578525605,1578525600,1578525605,2020.02178218605,2.1559e-06,,,,34.064,-118.089,794.46,970.2,0.895033,2.0902834,285.94,,,47632358,1,723634,8239212,obspack_ch4_1_GLOBALVIEWplus_v4.0_2021-10-14~ch4_iagos-caribic_aircraft-insitu_457_allvalid~8239212,IAGOS,In-service Aircraft for a Global Observing System,France,aircraft-insitu,KIT/IMK-ASF,Altitude (in meters above sea level). See provider_comment if available.,,,-1e+34,asl,,,,,,,,,,SU_20200108_584_MUC_LAX_10s_V05.txt~4421,,2020-01-08T23:20:05Z,0,2020-01-08T23:20:05Z,"warning, start/end time equals",2020,1,08,23,20,5,-118.089,34.064,2155.9,2020.02178218605,2020-01-08T22:27:05Z,15,2020,1,8,15,
2020,1,8,23,20,25,1578525625,1578525620,1578525625,2020.02178281851,2.2207e-06,,,,34.062,-118.107,690.68,981.2,1.1642731,2.8586674,286.51,,,47632355,1,723636,8239214,obspack_ch4_1_GLOBALVIEWplus_v4.0_2021-10-14~ch4_iagos-caribic_aircraft-insitu_457_allvalid~8239214,IAGOS,In-service Aircraft for a Global Observing System,France,aircraft-insitu,KIT/IMK-ASF,Altitude (in meters above sea level). See provider_comment if available.,,,-1e+34,asl,,,,,,,,,,SU_20200108_584_MUC_LAX_10s_V05.txt~4423,,2020-01-08T23:20:25Z,0,2020-01-08T23:20:25Z,"warning, start/end time equals",2020,1,08,23,20,25,-118.107,34.062,2220.7,2020.02178281851,2020-01-08T22:27:25Z,15,2020,1,8,15,
2020,1,8,23,20,45,1578525645,1578525640,1578525645,2020.02178345097,2.1135e-06,,,,34.06,-118.126,596.28,985.6,1.6528131,2.9953012,286.74,,,47632353,1,723638,8239216,obspack_ch4_1_GLOBALVIEWplus_v4.0_2021-10-14~ch4_iagos-caribic_aircraft-insitu_457_allvalid~8239216,IAGOS,In-service Aircraft for a Global Observing System,France,aircraft-insitu,KIT/IMK-ASF,Altitude (in meters above sea level). See provider_comment if available.,,,-1e+34,asl,,,,,,,,,,SU_20200108_584_MUC_LAX_10s_V05.txt~4425,,2020-01-08T23:20:45Z,0,2020-01-08T23:20:45Z,"warning, start/end time equals",2020,1,08,23,20,45,-118.126,34.06,2113.5,2020.02178345097,2020-01-08T22:28:45Z,15,2020,1,8,15,
2020,3,2,22,38,45,1583188725,1583188720,1583188725,2020.16924474423,1.9032e-06,,,,34.6,-116.356,7995.88,489.7,-39.79371,-33.521286,263.65,,,47632658,1,738299,8253877,obspack_ch4_1_GLOBALVIEWplus_v4.0_2021-10-14~ch4_iagos-caribic_aircraft-insitu_457_allvalid~8253877,IAGOS,In-service Aircraft for a Global Observing System,France,aircraft-insitu,KIT/IMK-ASF,Altitude (in meters above sea level). See provider_comment if available.,,,-1e+34,asl,,,,,,,,,,SU_20200302_588_MUC_LAX_10s_V05.txt~4218,,2020-03-02T22:38:45Z,0,2020-03-02T22:38:45Z,"warning, start/end time equals",2020,3,02,22,38,45,-116.356,34.6,1903.2,2020.16924474423,2020-03-02T21:53:45Z,14,2020,3,2,14,
2020,3,2,22,39,5,1583188745,1583188740,1583188745,2020.1692453767,1.9025e-06,,,,34.567,-116.398,7881.67,497.4,-39.37772,-32.703625,265.07,,,47632647,1,738301,8253879,obspack_ch4_1_GLOBALVIEWplus_v4.0_2021-10-14~ch4_iagos-caribic_aircraft-insitu_457_allvalid~8253879,IAGOS,In-service Aircraft for a Global Observing System,France,aircraft-insitu,KIT/IMK-ASF,Altitude (in meters above sea level). See provider_comment if available.,,,-1e+34,asl,,,,,,,,,,SU_20200302_588_MUC_LAX_10s_V05.txt~4220,,2020-03-02T22:39:05Z,0,2020-03-02T22:39:05Z,"warning, start/end time equals",2020,3,02,22,39,5,-116.398,34.567,1902.5,2020.1692453767,2020-03-02T21:53:05Z,14,2020,3,2,14,
2020,3,2,22,39,25,1583188765,1583188760,1583188765,2020.16924600916,1.9026e-06,,,,34.534,-116.439,7779.59,501.8,-39.64683,-29.80016,265.35,,,47632636,1,738303,8253881,obspack_ch4_1_GLOBALVIEWplus_v4.0_2021-10-14~ch4_iagos-caribic_aircraft-insitu_457_allvalid~8253881,IAGOS,In-service Aircraft for a Global Observing System,France,aircraft-insitu,KIT/IMK-ASF,Altitude (in meters above sea level). See provider_comment if available.,,,-1e+34,asl,,,,,,,,,,SU_20200302_588_MUC_LAX_10s_V05.txt~4222,,2020-03-02T22:39:25Z,0,2020-03-02T22:39:25Z,"warning, start/end time equals",2020,3,02,22,39,25,-116.439,34.534,1902.6,2020.16924600916,2020-03-02T21:53:25Z,14,2020,3,2,14,
2020,3,2,22,39,45,1583188785,1583188780,1583188785,2020.16924664162,1.9035e-06,,,,34.501,-116.48,7699.74,502.6,-41.010723,-29.85075,264.65,,,47632624,1,738305,8253883,obspack_ch4_1_GLOBALVIEWplus_v4.0_2021-10-14~ch4_iagos-caribic_aircraft-insitu_457_allvalid~8253883,IAGOS,In-service Aircraft for a Global Observing System,France,aircraft-insitu,KIT/IMK-ASF,Altitude (in meters above sea level). See provider_comment if available.,,,-1e+34,asl,,,,,,,,,,SU_20200302_588_MUC_LAX_10s_V05.txt~4224,,2020-03-02T22:39:45Z,0,2020-03-02T22:39:45Z,"warning, start/end time equals",2020,3,02,22,39,45,-116.48,34.501,1903.5,2020.16924664162,2020-03-02T21:53:45Z,14,2020,3,2,14,
2020,3,2,22,40,5,1583188805,1583188800,1583188805,2020.16924727408,1.9012e-06,,,,34.47,-116.523,7594.31,512,-39.926678,-31.759113,265.87,,,47632613,1,738307,8253885,obspack_ch4_1_GLOBALVIEWplus_v4.0_2021-10-14~ch4_iagos-caribic_aircraft-insitu_457_allvalid~8253885,IAGOS,In-service Aircraft for a Global Observing System,France,aircraft-insitu,KIT/IMK-ASF,Altitude (in meters above sea level). See provider_comment if available.,,,-1e+34,asl,,,,,,,,,,SU_20200302_588_MUC_LAX_10s_V05.txt~4226,,2020-03-02T22:40:05Z,0,2020-03-02T22:40:05Z,"warning, start/end time equals",2020,3,02,22,40,5,-116.523,34.47,1901.2,2020.16924727408,2020-03-02T21:53:05Z,14,2020,3,2,14,
2020,3,2,22,40,25,1583188825,1583188820,1583188825,2020.16924790655,1.8904e-06,,,,34.444,-116.569,7481.07,519,-37.103203,-32.687862,266.27,,,47632600,1,738309,8253887,obspack_ch4_1_GLOBALVIEWplus_v4.0_2021-10-14~ch4_iagos-caribic_aircraft-insitu_457_allvalid~8253887,IAGOS,In-service Aircraft for a Global Observing System,France,aircraft-insitu,KIT/IMK-ASF,Altitude (in meters above sea level). See provider_comment if available.,,,-1e+34,asl,,,,,,,,,,SU_20200302_588_MUC_LAX_10s_V05.txt~4228,,2020-03-02T22:40:25Z,0,2020-03-02T22:40:25Z,"warning, start/end time equals",2020,3,02,22,40,25,-116.569,34.444,1890.4,2020.16924790655,2020-03-02T21:54:25Z,14,2020,3,2,14,
2020,3,2,22,40,45,1583188845,1583188840,1583188845,2020.16924853901,1.8862e-06,,,,34.422,-116.618,7387.41,521.2,-37.174995,-32.567177,265.63,,,47632592,1,738311,8253889,obspack_ch4_1_GLOBALVIEWplus_v4.0_2021-10-14~ch4_iagos-caribic_aircraft-insitu_457_allvalid~8253889,IAGOS,In-service Aircraft for a Global Observing System,France,aircraft-insitu,KIT/IMK-ASF,Altitude (in meters above sea level). See provider_comment if available.,,,-1e+34,asl,,,,,,,,,,SU_20200302_588_MUC_LAX_10s_V05.txt~4230,,2020-03-02T22:40:45Z,0,2020-03-02T22:40:45Z,"warning, start/end time equals",2020,3,02,22,40,45,-116.618,34.422,1886.2,2020.16924853901,2020-03-02T21:54:45Z,14,2020,3,2,14,
2020,3,2,22,41,5,1583188865,1583188860,1583188865,2020.16924917147,1.8874e-06,,,,34.401,-116.668,7338.03,523.6,-38.066708,-33.125893,266.03,,,47632584,1,738313,8253891,obspack_ch4_1_GLOBALVIEWplus_v4.0_2021-10-14~ch4_iagos-caribic_aircraft-insitu_457_allvalid~8253891,IAGOS,In-service Aircraft for a Global Observing System,France,aircraft-insitu,KIT/IMK-ASF,Altitude (in meters above sea level). See provider_comment if available.,,,-1e+34,asl,,,,,,,,,,SU_20200302_588_MUC_LAX_10s_V05.txt~4232,,2020-03-02T22:41:05Z,0,2020-03-02T22:41:05Z,"warning, start/end time equals",2020,3,02,22,41,5,-116.668,34.401,1887.4,2020.16924917147,2020-03-02T21:54:05Z,14,2020,3,2,14,
2020,3,2,22,41,25,1583188885,1583188880,1583188885,2020.16924980394,1.8844e-06,,,,34.382,-116.718,7326.17,526.8,-37.53387,-32.74288,267.07,,,47632575,1,738315,8253893,obspack_ch4_1_GLOBALVIEWplus_v4.0_2021-10-14~ch4_iagos-caribic_aircraft-insitu_457_allvalid~8253893,IAGOS,In-service Aircraft for a Global Observing System,France,aircraft-insitu,KIT/IMK-ASF,Altitude (in meters above sea level). See provider_comment if available.,,,-1e+34,asl,,,,,,,,,,SU_20200302_588_MUC_LAX_10s_V05.txt~4234,,2020-03-02T22:41:25Z,0,2020-03-02T22:41:25Z,"warning, start/end time equals",2020,3,02,22,41,25,-116.718,34.382,1884.4,2020.16924980394,2020-03-02T21:54:25Z,14,2020,3,2,14,
2020,3,2,22,41,45,1583188905,1583188900,1583188905,2020.1692504364,1.8886e-06,,,,34.361,-116.768,7294.26,530.1,-37.192482,-31.530361,267.7,,,47632566,1,738317,8253895,obspack_ch4_1_GLOBALVIEWplus_v4.0_2021-10-14~ch4_iagos-caribic_aircraft-insitu_457_allvalid~8253895,IAGOS,In-service Aircraft for a Global Observing System,France,aircraft-insitu,KIT/IMK-ASF,Altitude (in meters above sea level). See provider_comment if available.,,,-1e+34,asl,,,,,,,,,,SU_20200302_588_MUC_LAX_10s_V05.txt~4236,,2020-03-02T22:41:45Z,0,2020-03-02T22:41:45Z,"warning, start/end time equals",2020,3,02,22,41,45,-116.768,34.361,1888.6,2020.1692504364,2020-03-02T21:54:45Z,14,2020,3,2,14,
2020,3,2,22,42,5,1583188925,1583188920,1583188925,2020.16925106886,1.8879e-06,,,,34.34,-116.818,7078.86,545,-36.008835,-30.300777,268.68,,,47632556,1,738319,8253897,obspack_ch4_1_GLOBALVIEWplus_v4.0_2021-10-14~ch4_iagos-caribic_aircraft-insitu_457_allvalid~8253897,IAGOS,In-service Aircraft for a Global Observing System,France,aircraft-insitu,KIT/IMK-ASF,Altitude (in meters above sea level). See provider_comment if available.,,,-1e+34,asl,,,,,,,,,,SU_20200302_588_MUC_LAX_10s_V05.txt~4238,,2020-03-02T22:42:05Z,0,2020-03-02T22:42:05Z,"warning, start/end time equals",2020,3,02,22,42,5,-116.818,34.34,1887.9,2020.16925106886,2020-03-02T21:54:05Z,14,2020,3,2,14,
2020,3,2,22,42,25,1583188945,1583188940,1583188945,2020.16925170133,1.8926e-06,,,,34.321,-116.867,6835.78,558.1,-34.18225,-32.631046,269.01,,,47632547,1,738321,8253899,obspack_ch4_1_GLOBALVIEWplus_v4.0_2021-10-14~ch4_iagos-caribic_aircraft-insitu_457_allvalid~8253899,IAGOS,In-service Aircraft for a Global Observing System,France,aircraft-insitu,KIT/IMK-ASF,Altitude (in meters above sea level). See provider_comment if available.,,,-1e+34,asl,,,,,,,,,,SU_20200302_588_MUC_LAX_10s_V05.txt~4240,,2020-03-02T22:42:25Z,0,2020-03-02T22:42:25Z,"warning, start/end time equals",2020,3,02,22,42,25,-116.867,34.321,1892.6,2020.16925170133,2020-03-02T21:54:25Z,14,2020,3,2,14,
2020,3,2,22,42,45,1583188965,1583188960,1583188965,2020.16925233379,1.8911e-06,,,,34.301,-116.916,6587.98,572.6,-35.438046,-34.486073,269.97,,,47632538,1,738323,8253901,obspack_ch4_1_GLOBALVIEWplus_v4.0_2021-10-14~ch4_iagos-caribic_aircraft-insitu_457_allvalid~8253901,IAGOS,In-service Aircraft for a Global Observing System,France,aircraft-insitu,KIT/IMK-ASF,Altitude (in meters above sea level). See provider_comment if available.,,,-1e+34,asl,,,,,,,,,,SU_20200302_588_MUC_LAX_10s_V05.txt~4242,,2020-03-02T22:42:45Z,0,2020-03-02T22:42:45Z,"warning, start/end time equals",2020,3,02,22,42,45,-116.916,34.301,1891.1,2020.16925233379,2020-03-02T21:55:45Z,14,2020,3,2,14,
2020,3,2,22,43,5,1583188985,1583188980,1583188985,2020.16925296625,1.9112e-06,,,,34.282,-116.964,6391.35,587.7,-34.844997,-31.078505,270.97,,,47632527,1,738325,8253903,obspack_ch4_1_GLOBALVIEWplus_v4.0_2021-10-14~ch4_iagos-caribic_aircraft-insitu_457_allvalid~8253903,IAGOS,In-service Aircraft for a Global Observing System,France,aircraft-insitu,KIT/IMK-ASF,Altitude (in meters above sea level). See provider_comment if available.,,,-1e+34,asl,,,,,,,,,,SU_20200302_588_MUC_LAX_10s_V05.txt~4244,,2020-03-02T22:43:05Z,0,2020-03-02T22:43:05Z,"warning, start/end time equals",2020,3,02,22,43,5,-116.964,34.282,1911.2,2020.16925296625,2020-03-02T21:55:05Z,14,2020,3,2,14,
2020,3,2,22,43,25,1583189005,1583189000,1583189005,2020.16925359872,1.9119e-06,,,,34.263,-117.012,6180.7,600.1,-32.14429,-30.965578,271.19,,,47632517,1,738327,8253905,obspack_ch4_1_GLOBALVIEWplus_v4.0_2021-10-14~ch4_iagos-caribic_aircraft-insitu_457_allvalid~8253905,IAGOS,In-service Aircraft for a Global Observing System,France,aircraft-insitu,KIT/IMK-ASF,Altitude (in meters above sea level). See provider_comment if available.,,,-1e+34,asl,,,,,,,,,,SU_20200302_588_MUC_LAX_10s_V05.txt~4246,,2020-03-02T22:43:25Z,0,2020-03-02T22:43:25Z,"warning, start/end time equals",2020,3,02,22,43,25,-117.012,34.263,1911.9,2020.16925359872,2020-03-02T21:55:25Z,14,2020,3,2,14,
2020,3,2,22,43,45,1583189025,1583189020,1583189025,2020.16925423118,1.903e-06,,,,34.246,-117.059,5941.13,614.2,-32.664127,-25.972914,271.56,,,47632507,1,738329,8253907,obspack_ch4_1_GLOBALVIEWplus_v4.0_2021-10-14~ch4_iagos-caribic_aircraft-insitu_457_allvalid~8253907,IAGOS,In-service Aircraft for a Global Observing System,France,aircraft-insitu,KIT/IMK-ASF,Altitude (in meters above sea level). See provider_comment if available.,,,-1e+34,asl,,,,,,,,,,SU_20200302_588_MUC_LAX_10s_V05.txt~4248,,2020-03-02T22:43:45Z,0,2020-03-02T22:43:45Z,"warning, start/end time equals",2020,3,02,22,43,45,-117.059,34.246,1903,2020.16925423118,2020-03-02T21:55:45Z,14,2020,3,2,14,
2020,3,2,22,44,5,1583189045,1583189040,1583189045,2020.16925486364,1.9065e-06,,,,34.232,-117.107,5696.59,631.5,-29.700825,-24.059837,272.15,,,47632500,1,738331,8253909,obspack_ch4_1_GLOBALVIEWplus_v4.0_2021-10-14~ch4_iagos-caribic_aircraft-insitu_457_allvalid~8253909,IAGOS,In-service Aircraft for a Global Observing System,France,aircraft-insitu,KIT/IMK-ASF,Altitude (in meters above sea level). See provider_comment if available.,,,-1e+34,asl,,,,,,,,,,SU_20200302_588_MUC_LAX_10s_V05.txt~4250,,2020-03-02T22:44:05Z,0,2020-03-02T22:44:05Z,"warning, start/end time equals",2020,3,02,22,44,5,-117.107,34.232,1906.5,2020.16925486364,2020-03-02T21:55:05Z,14,2020,3,2,14,
2020,3,2,22,44,25,1583189065,1583189060,1583189065,2020.1692554961,1.9179e-06,,,,34.22,-117.154,5483.93,644.9,-26.81198,-21.190027,272.18,,,47632491,1,738333,8253911,obspack_ch4_1_GLOBALVIEWplus_v4.0_2021-10-14~ch4_iagos-caribic_aircraft-insitu_457_allvalid~8253911,IAGOS,In-service Aircraft for a Global Observing System,France,aircraft-insitu,KIT/IMK-ASF,Altitude (in meters above sea level). See provider_comment if available.,,,-1e+34,asl,,,,,,,,,,SU_20200302_588_MUC_LAX_10s_V05.txt~4252,,2020-03-02T22:44:25Z,0,2020-03-02T22:44:25Z,"warning, start/end time equals",2020,3,02,22,44,25,-117.154,34.22,1917.9,2020.1692554961,2020-03-02T21:55:25Z,14,2020,3,2,14,
2020,3,2,22,44,45,1583189085,1583189080,1583189085,2020.16925612857,1.9235e-06,,,,34.208,-117.199,5269.99,661.4,-23.443209,-16.69103,271.83,,,47632486,1,738335,8253913,obspack_ch4_1_GLOBALVIEWplus_v4.0_2021-10-14~ch4_iagos-caribic_aircraft-insitu_457_allvalid~8253913,IAGOS,In-service Aircraft for a Global Observing System,France,aircraft-insitu,KIT/IMK-ASF,Altitude (in meters above sea level). See provider_comment if available.,,,-1e+34,asl,,,,,,,,,,SU_20200302_588_MUC_LAX_10s_V05.txt~4254,,2020-03-02T22:44:45Z,0,2020-03-02T22:44:45Z,"warning, start/end time equals",2020,3,02,22,44,45,-117.199,34.208,1923.5,2020.16925612857,2020-03-02T21:55:45Z,14,2020,3,2,14,
2020,3,2,22,45,5,1583189105,1583189100,1583189105,2020.16925676103,1.9238e-06,,,,34.196,-117.243,5125.58,670.1,-17.940649,-12.1695795,270.21,,,47632477,1,738337,8253915,obspack_ch4_1_GLOBALVIEWplus_v4.0_2021-10-14~ch4_iagos-caribic_aircraft-insitu_457_allvalid~8253915,IAGOS,In-service Aircraft for a Global Observing System,France,aircraft-insitu,KIT/IMK-ASF,Altitude (in meters above sea level). See provider_comment if available.,,,-1e+34,asl,,,,,,,,,,SU_20200302_588_MUC_LAX_10s_V05.txt~4256,,2020-03-02T22:45:05Z,0,2020-03-02T22:45:05Z,"warning, start/end time equals",2020,3,02,22,45,5,-117.243,34.196,1923.8,2020.16925676103,2020-03-02T21:56:05Z,14,2020,3,2,14,
2020,3,2,22,45,25,1583189125,1583189120,1583189125,2020.16925739349,1.9267e-06,,,,34.184,-117.284,4919.78,681.1,-16.290098,-13.639971,270.93,,,47632471,1,738339,8253917,obspack_ch4_1_GLOBALVIEWplus_v4.0_2021-10-14~ch4_iagos-caribic_aircraft-insitu_457_allvalid~8253917,IAGOS,In-service Aircraft for a Global Observing System,France,aircraft-insitu,KIT/IMK-ASF,Altitude (in meters above sea level). See provider_comment if available.,,,-1e+34,asl,,,,,,,,,,SU_20200302_588_MUC_LAX_10s_V05.txt~4258,,2020-03-02T22:45:25Z,0,2020-03-02T22:45:25Z,"warning, start/end time equals",2020,3,02,22,45,25,-117.284,34.184,1926.7,2020.16925739349,2020-03-02T21:56:25Z,14,2020,3,2,14,
2020,3,2,22,45,45,1583189145,1583189140,1583189145,2020.16925802596,1.9205e-06,,,,34.173,-117.326,4704.59,696,-14.839221,-16.440187,271.42,,,47632463,1,738341,8253919,obspack_ch4_1_GLOBALVIEWplus_v4.0_2021-10-14~ch4_iagos-caribic_aircraft-insitu_457_allvalid~8253919,IAGOS,In-service Aircraft for a Global Observing System,France,aircraft-insitu,KIT/IMK-ASF,Altitude (in meters above sea level). See provider_comment if available.,,,-1e+34,asl,,,,,,,,,,SU_20200302_588_MUC_LAX_10s_V05.txt~4260,,2020-03-02T22:45:45Z,0,2020-03-02T22:45:45Z,"warning, start/end time equals",2020,3,02,22,45,45,-117.326,34.173,1920.5,2020.16925802596,2020-03-02T21:56:45Z,14,2020,3,2,14,
2020,3,2,22,46,5,1583189165,1583189160,1583189165,2020.16925865842,1.9155e-06,,,,34.162,-117.366,4561.45,699.8,-14.792071,-15.280235,271.47,,,47632456,1,738343,8253921,obspack_ch4_1_GLOBALVIEWplus_v4.0_2021-10-14~ch4_iagos-caribic_aircraft-insitu_457_allvalid~8253921,IAGOS,In-service Aircraft for a Global Observing System,France,aircraft-insitu,KIT/IMK-ASF,Altitude (in meters above sea level). See provider_comment if available.,,,-1e+34,asl,,,,,,,,,,SU_20200302_588_MUC_LAX_10s_V05.txt~4262,,2020-03-02T22:46:05Z,0,2020-03-02T22:46:05Z,"warning, start/end time equals",2020,3,02,22,46,5,-117.366,34.162,1915.5,2020.16925865842,2020-03-02T21:56:05Z,14,2020,3,2,14,
2020,3,2,22,46,25,1583189185,1583189180,1583189185,2020.16925929088,1.9173e-06,,,,34.151,-117.405,4403.84,707.7,-14.309021,-14.781243,272.11,,,47632448,1,738345,8253923,obspack_ch4_1_GLOBALVIEWplus_v4.0_2021-10-14~ch4_iagos-caribic_aircraft-insitu_457_allvalid~8253923,IAGOS,In-service Aircraft for a Global Observing System,France,aircraft-insitu,KIT/IMK-ASF,Altitude (in meters above sea level). See provider_comment if available.,,,-1e+34,asl,,,,,,,,,,SU_20200302_588_MUC_LAX_10s_V05.txt~4264,,2020-03-02T22:46:25Z,0,2020-03-02T22:46:25Z,"warning, start/end time equals",2020,3,02,22,46,25,-117.405,34.151,1917.3,2020.16925929088,2020-03-02T21:56:25Z,14,2020,3,2,14,
2020,3,2,22,46,45,1583189205,1583189200,1583189205,2020.16925992335,1.9211e-06,,,,34.14,-117.444,4253.36,713.7,-15.17653,-14.417099,272.87,,,47632442,1,738347,8253925,obspack_ch4_1_GLOBALVIEWplus_v4.0_2021-10-14~ch4_iagos-caribic_aircraft-insitu_457_allvalid~8253925,IAGOS,In-service Aircraft for a Global Observing System,France,aircraft-insitu,KIT/IMK-ASF,Altitude (in meters above sea level). See provider_comment if available.,,,-1e+34,asl,,,,,,,,,,SU_20200302_588_MUC_LAX_10s_V05.txt~4266,,2020-03-02T22:46:45Z,0,2020-03-02T22:46:45Z,"warning, start/end time equals",2020,3,02,22,46,45,-117.444,34.14,1921.1,2020.16925992335,2020-03-02T21:56:45Z,14,2020,3,2,14,
2020,3,2,22,47,5,1583189225,1583189220,1583189225,2020.16926055581,1.9158e-06,,,,34.13,-117.482,3943.41,751,-15.137319,-12.157672,276.07,,,47632434,1,738349,8253927,obspack_ch4_1_GLOBALVIEWplus_v4.0_2021-10-14~ch4_iagos-caribic_aircraft-insitu_457_allvalid~8253927,IAGOS,In-service Aircraft for a Global Observing System,France,aircraft-insitu,KIT/IMK-ASF,Altitude (in meters above sea level). See provider_comment if available.,,,-1e+34,asl,,,,,,,,,,SU_20200302_588_MUC_LAX_10s_V05.txt~4268,,2020-03-02T22:47:05Z,0,2020-03-02T22:47:05Z,"warning, start/end time equals",2020,3,02,22,47,5,-117.482,34.13,1915.8,2020.16926055581,2020-03-02T21:57:05Z,14,2020,3,2,14,
2020,3,2,22,47,25,1583189245,1583189240,1583189245,2020.16926118827,1.9128e-06,,,,34.121,-117.522,3737.61,774.4,-13.377328,-12.500776,277.94,,,47632428,1,738351,8253929,obspack_ch4_1_GLOBALVIEWplus_v4.0_2021-10-14~ch4_iagos-caribic_aircraft-insitu_457_allvalid~8253929,IAGOS,In-service Aircraft for a Global Observing System,France,aircraft-insitu,KIT/IMK-ASF,Altitude (in meters above sea level). See provider_comment if available.,,,-1e+34,asl,,,,,,,,,,SU_20200302_588_MUC_LAX_10s_V05.txt~4270,,2020-03-02T22:47:25Z,0,2020-03-02T22:47:25Z,"warning, start/end time equals",2020,3,02,22,47,25,-117.522,34.121,1912.8,2020.16926118827,2020-03-02T21:57:25Z,14,2020,3,2,14,
2020,3,2,22,47,45,1583189265,1583189260,1583189265,2020.16926182073,1.9097e-06,,,,34.111,-117.561,3635.78,777.9,-14.488724,-10.304214,277.57,,,47632418,1,738353,8253931,obspack_ch4_1_GLOBALVIEWplus_v4.0_2021-10-14~ch4_iagos-caribic_aircraft-insitu_457_allvalid~8253931,IAGOS,In-service Aircraft for a Global Observing System,France,aircraft-insitu,KIT/IMK-ASF,Altitude (in meters above sea level). See provider_comment if available.,,,-1e+34,asl,,,,,,,,,,SU_20200302_588_MUC_LAX_10s_V05.txt~4272,,2020-03-02T22:47:45Z,0,2020-03-02T22:47:45Z,"warning, start/end time equals",2020,3,02,22,47,45,-117.561,34.111,1909.7,2020.16926182073,2020-03-02T21:57:45Z,14,2020,3,2,14,
2020,3,2,22,48,5,1583189285,1583189280,1583189285,2020.1692624532,1.9071e-06,,,,34.098,-117.598,3561.65,778.7,-13.700108,-9.366617,276.91,,,47632403,1,738355,8253933,obspack_ch4_1_GLOBALVIEWplus_v4.0_2021-10-14~ch4_iagos-caribic_aircraft-insitu_457_allvalid~8253933,IAGOS,In-service Aircraft for a Global Observing System,France,aircraft-insitu,KIT/IMK-ASF,Altitude (in meters above sea level). See provider_comment if available.,,,-1e+34,asl,,,,,,,,,,SU_20200302_588_MUC_LAX_10s_V05.txt~4274,,2020-03-02T22:48:05Z,0,2020-03-02T22:48:05Z,"warning, start/end time equals",2020,3,02,22,48,5,-117.598,34.098,1907.1,2020.1692624532,2020-03-02T21:57:05Z,14,2020,3,2,14,
2020,3,2,22,48,25,1583189305,1583189300,1583189305,2020.16926308566,1.9116e-06,,,,34.085,-117.633,3441.1,778.8,-11.667317,-10.857129,275.83,,,47632388,1,738357,8253935,obspack_ch4_1_GLOBALVIEWplus_v4.0_2021-10-14~ch4_iagos-caribic_aircraft-insitu_457_allvalid~8253935,IAGOS,In-service Aircraft for a Global Observing System,France,aircraft-insitu,KIT/IMK-ASF,Altitude (in meters above sea level). See provider_comment if available.,,,-1e+34,asl,,,,,,,,,,SU_20200302_588_MUC_LAX_10s_V05.txt~4276,,2020-03-02T22:48:25Z,0,2020-03-02T22:48:25Z,"warning, start/end time equals",2020,3,02,22,48,25,-117.633,34.085,1911.6,2020.16926308566,2020-03-02T21:57:25Z,14,2020,3,2,14,
2020,3,2,22,48,45,1583189325,1583189320,1583189325,2020.16926371812,1.9192e-06,,,,34.074,-117.667,3348.01,774.2,-12.168005,-11.779269,274.95,,,47632373,1,738359,8253937,obspack_ch4_1_GLOBALVIEWplus_v4.0_2021-10-14~ch4_iagos-caribic_aircraft-insitu_457_allvalid~8253937,IAGOS,In-service Aircraft for a Global Observing System,France,aircraft-insitu,KIT/IMK-ASF,Altitude (in meters above sea level). See provider_comment if available.,,,-1e+34,asl,,,,,,,,,,SU_20200302_588_MUC_LAX_10s_V05.txt~4278,,2020-03-02T22:48:45Z,0,2020-03-02T22:48:45Z,"warning, start/end time equals",2020,3,02,22,48,45,-117.667,34.074,1919.2,2020.16926371812,2020-03-02T21:58:45Z,14,2020,3,2,14,
2020,3,2,22,49,5,1583189345,1583189340,1583189345,2020.16926435059,1.9126e-06,,,,34.062,-117.699,3158.34,792,-14.349657,-7.2139883,277.8,,,47632356,1,738361,8253939,obspack_ch4_1_GLOBALVIEWplus_v4.0_2021-10-14~ch4_iagos-caribic_aircraft-insitu_457_allvalid~8253939,IAGOS,In-service Aircraft for a Global Observing System,France,aircraft-insitu,KIT/IMK-ASF,Altitude (in meters above sea level). See provider_comment if available.,,,-1e+34,asl,,,,,,,,,,SU_20200302_588_MUC_LAX_10s_V05.txt~4280,,2020-03-02T22:49:05Z,0,2020-03-02T22:49:05Z,"warning, start/end time equals",2020,3,02,22,49,5,-117.699,34.062,1912.6,2020.16926435059,2020-03-02T21:58:05Z,14,2020,3,2,14,
2020,3,2,22,49,25,1583189365,1583189360,1583189365,2020.16926498305,1.9118e-06,,,,34.05,-117.732,3026.51,806.1,-13.172844,-6.187441,279.75,,,47632349,1,738363,8253941,obspack_ch4_1_GLOBALVIEWplus_v4.0_2021-10-14~ch4_iagos-caribic_aircraft-insitu_457_allvalid~8253941,IAGOS,In-service Aircraft for a Global Observing System,France,aircraft-insitu,KIT/IMK-ASF,Altitude (in meters above sea level). See provider_comment if available.,,,-1e+34,asl,,,,,,,,,,SU_20200302_588_MUC_LAX_10s_V05.txt~4282,,2020-03-02T22:49:25Z,0,2020-03-02T22:49:25Z,"warning, start/end time equals",2020,3,02,22,49,25,-117.732,34.05,1911.8,2020.16926498305,2020-03-02T21:58:25Z,14,2020,3,2,14,
2020,3,2,22,49,45,1583189385,1583189380,1583189385,2020.16926561551,1.9122e-06,,,,34.042,-117.767,2910.84,815.5,-13.071202,-9.939573,280.38,,,47632345,1,738365,8253943,obspack_ch4_1_GLOBALVIEWplus_v4.0_2021-10-14~ch4_iagos-caribic_aircraft-insitu_457_allvalid~8253943,IAGOS,In-service Aircraft for a Global Observing System,France,aircraft-insitu,KIT/IMK-ASF,Altitude (in meters above sea level). See provider_comment if available.,,,-1e+34,asl,,,,,,,,,,SU_20200302_588_MUC_LAX_10s_V05.txt~4284,,2020-03-02T22:49:45Z,0,2020-03-02T22:49:45Z,"warning, start/end time equals",2020,3,02,22,49,45,-117.767,34.042,1912.2,2020.16926561551,2020-03-02T21:58:45Z,14,2020,3,2,14,
2020,3,2,22,50,5,1583189405,1583189400,1583189405,2020.16926624798,1.9275e-06,,,,34.039,-117.802,2810.5,836.6,-8.196754,-8.51174,279.4,,,47632343,1,738367,8253945,obspack_ch4_1_GLOBALVIEWplus_v4.0_2021-10-14~ch4_iagos-caribic_aircraft-insitu_457_allvalid~8253945,IAGOS,In-service Aircraft for a Global Observing System,France,aircraft-insitu,KIT/IMK-ASF,Altitude (in meters above sea level). See provider_comment if available.,,,-1e+34,asl,,,,,,,,,,SU_20200302_588_MUC_LAX_10s_V05.txt~4286,,2020-03-02T22:50:05Z,0,2020-03-02T22:50:05Z,"warning, start/end time equals",2020,3,02,22,50,5,-117.802,34.039,1927.5,2020.16926624798,2020-03-02T21:58:05Z,14,2020,3,2,14,
2020,3,2,22,50,25,1583189425,1583189420,1583189425,2020.16926688044,1.934e-06,,,,34.036,-117.837,2694.25,841.5,-9.064925,-10.340207,280.22,,,47632341,1,738369,8253947,obspack_ch4_1_GLOBALVIEWplus_v4.0_2021-10-14~ch4_iagos-caribic_aircraft-insitu_457_allvalid~8253947,IAGOS,In-service Aircraft for a Global Observing System,France,aircraft-insitu,KIT/IMK-ASF,Altitude (in meters above sea level). See provider_comment if available.,,,-1e+34,asl,,,,,,,,,,SU_20200302_588_MUC_LAX_10s_V05.txt~4288,,2020-03-02T22:50:25Z,0,2020-03-02T22:50:25Z,"warning, start/end time equals",2020,3,02,22,50,25,-117.837,34.036,1934,2020.16926688044,2020-03-02T21:59:25Z,14,2020,3,2,14,
2020,3,2,22,50,45,1583189445,1583189440,1583189445,2020.1692675129,1.9247e-06,,,,34.033,-117.871,2582.97,844.7,-10.782746,-10.100911,281.37,,,47632337,1,738371,8253949,obspack_ch4_1_GLOBALVIEWplus_v4.0_2021-10-14~ch4_iagos-caribic_aircraft-insitu_457_allvalid~8253949,IAGOS,In-service Aircraft for a Global Observing System,France,aircraft-insitu,KIT/IMK-ASF,Altitude (in meters above sea level). See provider_comment if available.,,,-1e+34,asl,,,,,,,,,,SU_20200302_588_MUC_LAX_10s_V05.txt~4290,,2020-03-02T22:50:45Z,0,2020-03-02T22:50:45Z,"warning, start/end time equals",2020,3,02,22,50,45,-117.871,34.033,1924.7,2020.1692675129,2020-03-02T21:59:45Z,14,2020,3,2,14,
2020,3,2,22,51,5,1583189465,1583189460,1583189465,2020.16926814537,1.9248e-06,,,,34.03,-117.904,2439.28,860.3,-9.948733,-6.3478107,282.36,,,47632335,1,738373,8253951,obspack_ch4_1_GLOBALVIEWplus_v4.0_2021-10-14~ch4_iagos-caribic_aircraft-insitu_457_allvalid~8253951,IAGOS,In-service Aircraft for a Global Observing System,France,aircraft-insitu,KIT/IMK-ASF,Altitude (in meters above sea level). See provider_comment if available.,,,-1e+34,asl,,,,,,,,,,SU_20200302_588_MUC_LAX_10s_V05.txt~4292,,2020-03-02T22:51:05Z,0,2020-03-02T22:51:05Z,"warning, start/end time equals",2020,3,02,22,51,5,-117.904,34.03,1924.8,2020.16926814537,2020-03-02T21:59:05Z,14,2020,3,2,14,
2020,3,2,22,51,25,1583189485,1583189480,1583189485,2020.16926877783,1.928e-06,,,,34.026,-117.938,2340.59,865.8,-7.4477034,-6.218417,282.94,,,47632332,1,738375,8253953,obspack_ch4_1_GLOBALVIEWplus_v4.0_2021-10-14~ch4_iagos-caribic_aircraft-insitu_457_allvalid~8253953,IAGOS,In-service Aircraft for a Global Observing System,France,aircraft-insitu,KIT/IMK-ASF,Altitude (in meters above sea level). See provider_comment if available.,,,-1e+34,asl,,,,,,,,,,SU_20200302_588_MUC_LAX_10s_V05.txt~4294,,2020-03-02T22:51:25Z,0,2020-03-02T22:51:25Z,"warning, start/end time equals",2020,3,02,22,51,25,-117.938,34.026,1928,2020.16926877783,2020-03-02T21:59:25Z,14,2020,3,2,14,
2020,3,2,22,51,45,1583189505,1583189500,1583189505,2020.16926941029,1.9355e-06,,,,34.023,-117.969,2256.89,864.8,-3.3587363,-3.7460024,282.27,,,47632329,1,738377,8253955,obspack_ch4_1_GLOBALVIEWplus_v4.0_2021-10-14~ch4_iagos-caribic_aircraft-insitu_457_allvalid~8253955,IAGOS,In-service Aircraft for a Global Observing System,France,aircraft-insitu,KIT/IMK-ASF,Altitude (in meters above sea level). See provider_comment if available.,,,-1e+34,asl,,,,,,,,,,SU_20200302_588_MUC_LAX_10s_V05.txt~4296,,2020-03-02T22:51:45Z,0,2020-03-02T22:51:45Z,"warning, start/end time equals",2020,3,02,22,51,45,-117.969,34.023,1935.5,2020.16926941029,2020-03-02T21:59:45Z,14,2020,3,2,14,
2020,3,2,22,52,5,1583189525,1583189520,1583189525,2020.16927004275,1.9378e-06,,,,34.02,-117.998,2214.83,854.9,-4.3449492,-4.443117,280.56,,,47632327,1,738379,8253957,obspack_ch4_1_GLOBALVIEWplus_v4.0_2021-10-14~ch4_iagos-caribic_aircraft-insitu_457_allvalid~8253957,IAGOS,In-service Aircraft for a Global Observing System,France,aircraft-insitu,KIT/IMK-ASF,Altitude (in meters above sea level). See provider_comment if available.,,,-1e+34,asl,,,,,,,,,,SU_20200302_588_MUC_LAX_10s_V05.txt~4298,,2020-03-02T22:52:05Z,0,2020-03-02T22:52:05Z,"warning, start/end time equals",2020,3,02,22,52,5,-117.998,34.02,1937.8,2020.16927004275,2020-03-02T22:00:05Z,15,2020,3,2,15,
2020,3,2,22,52,25,1583189545,1583189540,1583189545,2020.16927067522,1.9413e-06,,,,34.017,-118.026,2061.3,870.3,-5.5593877,-8.485934,281.68,,,47632324,1,738381,8253959,obspack_ch4_1_GLOBALVIEWplus_v4.0_2021-10-14~ch4_iagos-caribic_aircraft-insitu_457_allvalid~8253959,IAGOS,In-service Aircraft for a Global Observing System,France,aircraft-insitu,KIT/IMK-ASF,Altitude (in meters above sea level). See provider_comment if available.,,,-1e+34,asl,,,,,,,,,,SU_20200302_588_MUC_LAX_10s_V05.txt~4300,,2020-03-02T22:52:25Z,0,2020-03-02T22:52:25Z,"warning, start/end time equals",2020,3,02,22,52,25,-118.026,34.017,1941.3,2020.16927067522,2020-03-02T22:00:25Z,15,2020,3,2,15,
2020,3,2,22,52,45,1583189565,1583189560,1583189565,2020.16927130768,1.9428e-06,,,,34.014,-118.054,1878.42,885.8,-6.6991367,-7.638901,283,,,47632322,1,738383,8253961,obspack_ch4_1_GLOBALVIEWplus_v4.0_2021-10-14~ch4_iagos-caribic_aircraft-insitu_457_allvalid~8253961,IAGOS,In-service Aircraft for a Global Observing System,France,aircraft-insitu,KIT/IMK-ASF,Altitude (in meters above sea level). See provider_comment if available.,,,-1e+34,asl,,,,,,,,,,SU_20200302_588_MUC_LAX_10s_V05.txt~4302,,2020-03-02T22:52:45Z,0,2020-03-02T22:52:45Z,"warning, start/end time equals",2020,3,02,22,52,45,-118.054,34.014,1942.8,2020.16927130768,2020-03-02T22:00:45Z,15,2020,3,2,15,
2020,3,2,22,53,5,1583189585,1583189580,1583189585,2020.16927194014,1.9431e-06,,,,34.012,-118.081,1756.87,890.9,-4.4533815,-7.942327,283.68,,,47632320,1,738385,8253963,obspack_ch4_1_GLOBALVIEWplus_v4.0_2021-10-14~ch4_iagos-caribic_aircraft-insitu_457_allvalid~8253963,IAGOS,In-service Aircraft for a Global Observing System,France,aircraft-insitu,KIT/IMK-ASF,Altitude (in meters above sea level). See provider_comment if available.,,,-1e+34,asl,,,,,,,,,,SU_20200302_588_MUC_LAX_10s_V05.txt~4304,,2020-03-02T22:53:05Z,0,2020-03-02T22:53:05Z,"warning, start/end time equals",2020,3,02,22,53,5,-118.081,34.012,1943.1,2020.16927194014,2020-03-02T22:00:05Z,15,2020,3,2,15,
2020,3,2,22,53,25,1583189605,1583189600,1583189605,2020.16927257261,1.9428e-06,,,,34.009,-118.106,1682.28,891.1,-3.269207,-10.980335,283.91,,,47632317,1,738387,8253965,obspack_ch4_1_GLOBALVIEWplus_v4.0_2021-10-14~ch4_iagos-caribic_aircraft-insitu_457_allvalid~8253965,IAGOS,In-service Aircraft for a Global Observing System,France,aircraft-insitu,KIT/IMK-ASF,Altitude (in meters above sea level). See provider_comment if available.,,,-1e+34,asl,,,,,,,,,,SU_20200302_588_MUC_LAX_10s_V05.txt~4306,,2020-03-02T22:53:25Z,0,2020-03-02T22:53:25Z,"warning, start/end time equals",2020,3,02,22,53,25,-118.106,34.009,1942.8,2020.16927257261,2020-03-02T22:00:25Z,15,2020,3,2,15,
2020,3,2,22,53,45,1583189625,1583189620,1583189625,2020.16927320507,1.941e-06,,,,34.007,-118.13,1639.58,887.1,-2.8238177,-7.7206197,283.51,,,47632314,1,738389,8253967,obspack_ch4_1_GLOBALVIEWplus_v4.0_2021-10-14~ch4_iagos-caribic_aircraft-insitu_457_allvalid~8253967,IAGOS,In-service Aircraft for a Global Observing System,France,aircraft-insitu,KIT/IMK-ASF,Altitude (in meters above sea level). See provider_comment if available.,,,-1e+34,asl,,,,,,,,,,SU_20200302_588_MUC_LAX_10s_V05.txt~4308,,2020-03-02T22:53:45Z,0,2020-03-02T22:53:45Z,"warning, start/end time equals",2020,3,02,22,53,45,-118.13,34.007,1941,2020.16927320507,2020-03-02T22:01:45Z,15,2020,3,2,15,
2020,3,2,22,54,5,1583189645,1583189640,1583189645,2020.16927383753,1.9462e-06,,,,34.005,-118.152,1565.73,892,-3.445491,-5.7139106,283.68,,,47632312,1,738391,8253969,obspack_ch4_1_GLOBALVIEWplus_v4.0_2021-10-14~ch4_iagos-caribic_aircraft-insitu_457_allvalid~8253969,IAGOS,In-service Aircraft for a Global Observing System,France,aircraft-insitu,KIT/IMK-ASF,Altitude (in meters above sea level). See provider_comment if available.,,,-1e+34,asl,,,,,,,,,,SU_20200302_588_MUC_LAX_10s_V05.txt~4310,,2020-03-02T22:54:05Z,0,2020-03-02T22:54:05Z,"warning, start/end time equals",2020,3,02,22,54,5,-118.152,34.005,1946.2,2020.16927383753,2020-03-02T22:01:05Z,15,2020,3,2,15,
2020,3,2,22,54,25,1583189665,1583189660,1583189665,2020.16927447,1.946e-06,,,,34.003,-118.175,1460.97,910,0.6385928,-2.5765765,285.51,,,47632310,1,738393,8253971,obspack_ch4_1_GLOBALVIEWplus_v4.0_2021-10-14~ch4_iagos-caribic_aircraft-insitu_457_allvalid~8253971,IAGOS,In-service Aircraft for a Global Observing System,France,aircraft-insitu,KIT/IMK-ASF,Altitude (in meters above sea level). See provider_comment if available.,,,-1e+34,asl,,,,,,,,,,SU_20200302_588_MUC_LAX_10s_V05.txt~4312,,2020-03-02T22:54:25Z,0,2020-03-02T22:54:25Z,"warning, start/end time equals",2020,3,02,22,54,25,-118.175,34.003,1946,2020.16927447,2020-03-02T22:01:25Z,15,2020,3,2,15,
2020,3,2,22,54,45,1583189685,1583189680,1583189685,2020.16927510246,1.9482e-06,,,,34,-118.197,1343.04,920,-0.8706001,-3.706003,286.37,,,47632306,1,738395,8253973,obspack_ch4_1_GLOBALVIEWplus_v4.0_2021-10-14~ch4_iagos-caribic_aircraft-insitu_457_allvalid~8253973,IAGOS,In-service Aircraft for a Global Observing System,France,aircraft-insitu,KIT/IMK-ASF,Altitude (in meters above sea level). See provider_comment if available.,,,-1e+34,asl,,,,,,,,,,SU_20200302_588_MUC_LAX_10s_V05.txt~4314,,2020-03-02T22:54:45Z,0,2020-03-02T22:54:45Z,"warning, start/end time equals",2020,3,02,22,54,45,-118.197,34,1948.2,2020.16927510246,2020-03-02T22:01:45Z,15,2020,3,2,15,
2020,3,2,22,55,5,1583189705,1583189700,1583189705,2020.16927573492,1.9466e-06,,,,33.998,-118.22,1242.06,930.4,-1.9144597,-4.608259,287.49,,,47632304,1,738397,8253975,obspack_ch4_1_GLOBALVIEWplus_v4.0_2021-10-14~ch4_iagos-caribic_aircraft-insitu_457_allvalid~8253975,IAGOS,In-service Aircraft for a Global Observing System,France,aircraft-insitu,KIT/IMK-ASF,Altitude (in meters above sea level). See provider_comment if available.,,,-1e+34,asl,,,,,,,,,,SU_20200302_588_MUC_LAX_10s_V05.txt~4316,,2020-03-02T22:55:05Z,0,2020-03-02T22:55:05Z,"warning, start/end time equals",2020,3,02,22,55,5,-118.22,33.998,1946.6,2020.16927573492,2020-03-02T22:02:05Z,15,2020,3,2,15,
2020,3,2,22,55,25,1583189725,1583189720,1583189725,2020.16927636739,1.9453e-06,,,,33.996,-118.242,1143.64,944.1,-0.0882916,-4.5982857,288.64,,,47632302,1,738399,8253977,obspack_ch4_1_GLOBALVIEWplus_v4.0_2021-10-14~ch4_iagos-caribic_aircraft-insitu_457_allvalid~8253977,IAGOS,In-service Aircraft for a Global Observing System,France,aircraft-insitu,KIT/IMK-ASF,Altitude (in meters above sea level). See provider_comment if available.,,,-1e+34,asl,,,,,,,,,,SU_20200302_588_MUC_LAX_10s_V05.txt~4318,,2020-03-02T22:55:25Z,0,2020-03-02T22:55:25Z,"warning, start/end time equals",2020,3,02,22,55,25,-118.242,33.996,1945.3,2020.16927636739,2020-03-02T22:02:25Z,15,2020,3,2,15,
2020,3,2,22,55,45,1583189745,1583189740,1583189745,2020.16927699985,1.9469e-06,,,,33.994,-118.265,1018.61,956.2,0.3482948,-4.415652,289.66,,,47632300,1,738401,8253979,obspack_ch4_1_GLOBALVIEWplus_v4.0_2021-10-14~ch4_iagos-caribic_aircraft-insitu_457_allvalid~8253979,IAGOS,In-service Aircraft for a Global Observing System,France,aircraft-insitu,KIT/IMK-ASF,Altitude (in meters above sea level). See provider_comment if available.,,,-1e+34,asl,,,,,,,,,,SU_20200302_588_MUC_LAX_10s_V05.txt~4320,,2020-03-02T22:55:45Z,0,2020-03-02T22:55:45Z,"warning, start/end time equals",2020,3,02,22,55,45,-118.265,33.994,1946.9,2020.16927699985,2020-03-02T22:02:45Z,15,2020,3,2,15,
2020,3,2,22,56,5,1583189765,1583189760,1583189765,2020.16927763231,1.9518e-06,,,,33.992,-118.287,889.77,973.5,0.6202226,-6.224822,291.16,,,47632298,1,738403,8253981,obspack_ch4_1_GLOBALVIEWplus_v4.0_2021-10-14~ch4_iagos-caribic_aircraft-insitu_457_allvalid~8253981,IAGOS,In-service Aircraft for a Global Observing System,France,aircraft-insitu,KIT/IMK-ASF,Altitude (in meters above sea level). See provider_comment if available.,,,-1e+34,asl,,,,,,,,,,SU_20200302_588_MUC_LAX_10s_V05.txt~4322,,2020-03-02T22:56:05Z,0,2020-03-02T22:56:05Z,"warning, start/end time equals",2020,3,02,22,56,5,-118.287,33.992,1951.8,2020.16927763231,2020-03-02T22:02:05Z,15,2020,3,2,15,
2020,3,2,22,56,25,1583189785,1583189780,1583189785,2020.16927826477,1.95e-06,,,,33.99,-118.309,774.95,977.7,-1.2441795,-4.986424,291.53,,,47632296,1,738405,8253983,obspack_ch4_1_GLOBALVIEWplus_v4.0_2021-10-14~ch4_iagos-caribic_aircraft-insitu_457_allvalid~8253983,IAGOS,In-service Aircraft for a Global Observing System,France,aircraft-insitu,KIT/IMK-ASF,Altitude (in meters above sea level). See provider_comment if available.,,,-1e+34,asl,,,,,,,,,,SU_20200302_588_MUC_LAX_10s_V05.txt~4324,,2020-03-02T22:56:25Z,0,2020-03-02T22:56:25Z,"warning, start/end time equals",2020,3,02,22,56,25,-118.309,33.99,1950,2020.16927826477,2020-03-02T22:03:25Z,15,2020,3,2,15,
2020,3,2,22,56,45,1583189805,1583189800,1583189805,2020.16927889724,1.9499e-06,,,,33.988,-118.329,672.36,981.1,-1.3477107,-6.708067,291.79,,,47632293,1,738407,8253985,obspack_ch4_1_GLOBALVIEWplus_v4.0_2021-10-14~ch4_iagos-caribic_aircraft-insitu_457_allvalid~8253985,IAGOS,In-service Aircraft for a Global Observing System,France,aircraft-insitu,KIT/IMK-ASF,Altitude (in meters above sea level). See provider_comment if available.,,,-1e+34,asl,,,,,,,,,,SU_20200302_588_MUC_LAX_10s_V05.txt~4326,,2020-03-02T22:56:45Z,0,2020-03-02T22:56:45Z,"warning, start/end time equals",2020,3,02,22,56,45,-118.329,33.988,1949.9,2020.16927889724,2020-03-02T22:03:45Z,15,2020,3,2,15,
